<?xml version="1.0" standalone="no"?>
<!DOCTYPE svg PUBLIC "-//W3C//DTD SVG 1.1//EN" "http://www.w3.org/Graphics/SVG/1.1/DTD/svg11.dtd" >
<svg xmlns="http://www.w3.org/2000/svg">
<metadata>Generated by IcoMoon</metadata>
<defs>
<font id="icomoon" horiz-adv-x="1024">
<font-face units-per-em="1024" ascent="960" descent="-64" />
<missing-glyph horiz-adv-x="1024" />
<glyph unicode="&#x20;" horiz-adv-x="512" d="" />
<glyph unicode="&#xe900;" glyph-name="home" horiz-adv-x="1150" d="M1144.527 561.292l-560.866 395.432c-2.375 2.054-5.495 3.306-8.906 3.306s-6.531-1.252-8.924-3.321l0.017 0.015-560.866-395.432c-3.078-2.522-5.026-6.324-5.026-10.58 0-1.715 0.316-3.357 0.894-4.869l-0.031 0.094c1.917-5.371 6.96-9.146 12.885-9.146 0.053 0 0.105 0 0.158 0.001h208.15l-3.822-519.507c0.078-44.847 36.432-81.177 81.28-81.216h542.511c0 0 0 0 0 0 44.844 0 81.206 36.314 81.284 81.14v0.007l3.822 519.576h208.431c0.045-0.001 0.097-0.001 0.15-0.001 5.925 0 10.968 3.775 12.856 9.051l0.030 0.095c0.567 1.443 0.895 3.114 0.895 4.861 0 4.209-1.905 7.973-4.9 10.477l-0.022 0.018zM895.625 17.216c-0.039-29.522-23.98-53.439-53.507-53.439 0 0 0 0 0 0h-542.507c0 0 0 0 0 0-29.503 0-53.429 23.878-53.507 53.363v0.007l3.481 427.031c80.95 18.272 173.917 28.742 269.329 28.742 1.744 0 3.487-0.003 5.23-0.010l-0.269 0.001h24.569c4.736 0.090 10.322 0.142 15.92 0.142 120.551 0 235.532-23.846 340.484-67.079l-5.949 2.17zM913.438 564.5c-7.539 0-13.65-6.111-13.65-13.65v0l-0.478-112.678c-99.36 39.603-214.507 62.57-335.019 62.57-5.308 0-10.605-0.045-15.892-0.133l0.796 0.011h-25.252c-1.647 0.007-3.595 0.012-5.544 0.012-95.067 0-187.771-10.121-277.092-29.343l8.618 1.554v77.667c0.001 0.044 0.001 0.095 0.001 0.147 0 3.784-1.54 7.208-4.027 9.681l-0.001 0.001c-2.479 2.528-5.931 4.095-9.748 4.095-0.028 0-0.056 0-0.084 0h-184.267l522.647 363.423 522.647-363.423zM462.793-64v260.368c0.039 29.522 23.98 53.439 53.507 53.439 0 0 0 0 0 0h116.841c0 0 0 0 0 0 29.503 0 53.429-23.878 53.507-53.363v-260.58h27.845v260.504c-0.039 44.863-36.416 81.216-81.284 81.216h-116.841c0 0 0 0 0 0-44.844 0-81.206-36.314-81.284-81.14v-260.443z" />
<glyph unicode="&#xe901;" glyph-name="serccu" horiz-adv-x="937" d="M936.96 117.999c-10.961 98.743-59.783 184.357-131.396 243.276l-0.632 0.505c-46.262 42.853-100.977 77.363-161.266 100.676l-3.462 1.177c62.529 51.715 102.071 129.313 102.071 216.147 0 154.581-125.313 279.893-279.893 279.893-114.534 0-213-68.794-256.332-167.316l-0.704-1.795c-2.061-1.075-3.488-3.115-3.685-5.505l-0.002-0.025c0-1.297 0-2.526 0-3.823-11.752-29.399-18.569-63.474-18.569-99.142 0-0.017 0-0.035 0-0.052v0.003c0.002-88.716 41.208-167.807 105.525-219.181l0.562-0.433c-60.616-23.223-112.723-55.582-157.45-95.961l0.436 0.388c-74.129-60.033-123.53-148.075-132.006-247.786l-0.090-1.319c-0.016-0.255-0.026-0.553-0.026-0.853s0.009-0.598 0.028-0.894l-0.002 0.041v-17.408c3.788-40.737 37.803-72.379 79.208-72.379 2.083 0 4.148 0.080 6.191 0.237l-0.271-0.017h260.164c23.347-22.118 49.766-43.827 77.414-66.56l17.613-14.473c7.347-6.136 16.892-9.862 27.307-9.862s19.96 3.726 27.375 9.917l-0.068-0.055 15.633 12.834c28.262 23.279 55.364 45.534 79.189 68.267h262.349c1.772-0.141 3.837-0.221 5.92-0.221 41.406 0 75.421 31.642 79.185 72.064l0.024 0.315v18.091s-0.341 0.887-0.341 1.229zM463.872 946.415c0.106 0 0.232 0 0.358 0 90.071 0 169.765-44.432 218.36-112.573l0.555-0.819c-86.598-0.061-165.703-32.092-226.161-84.928l0.403 0.345c-35.809-33.414-82.71-55.356-134.611-59.745l-0.83-0.057c-1.844-0.106-4.001-0.166-6.172-0.166-30.729 0-58.645 12.050-79.278 31.682l0.048-0.045c-13.327 14.521-21.495 33.964-21.495 55.315 0 1.098 0.022 2.19 0.064 3.278l-0.005-0.156c40.635 99.236 136.465 167.868 248.325 167.868 0.154 0 0.309 0 0.463 0h-0.024zM196.608 682.018c0 0.005 0 0.011 0 0.017 0 23.83 3.189 46.916 9.163 68.853l-0.425-1.832c4.139-14.941 11.536-27.82 21.413-38.346l-0.045 0.049c23.038-22.198 54.422-35.872 88.999-35.872 2.312 0 4.61 0.061 6.893 0.182l-0.319-0.013c55.71 4.46 105.354 27.373 143.527 62.547l-0.167-0.152c58.209 50.888 134.904 81.922 218.848 81.922 0.437 0 0.874-0.001 1.311-0.003h6.759c24.425-38.941 38.912-86.271 38.912-136.985 0-0.105 0-0.21 0-0.316v0.016c-0.017-86.747-41.401-163.824-105.498-212.581l-0.656-0.479c-40.843 14.253-87.929 22.563-136.932 22.733h-39.128c-51.843-0.085-101.617-8.826-147.991-24.855l3.197 0.961c-65.704 49.166-107.793 126.771-107.861 214.21v0.011zM611.055 459.059c-41.379-27.782-92.316-44.341-147.121-44.341-53.31 0-102.96 15.668-144.597 42.651l1.039-0.631c38.331 13.116 82.509 20.921 128.438 21.434l0.245 0.002h39.049c43.929-0.146 86.175-7.126 125.803-19.931l-2.923 0.816zM501.828-30.959l-15.633-12.834c-5.044-4.012-11.506-6.437-18.534-6.437s-13.491 2.425-18.596 6.484l0.061-0.047-17.681 14.541c-86.494 71.066-161.109 132.437-161.109 223.164-0.004 0.345-0.006 0.753-0.006 1.161 0 60.739 49.239 109.978 109.978 109.978 1.371 0 2.735-0.025 4.094-0.075l-0.196 0.006c30.857-1.012 58.53-13.864 78.779-34.132l0.001-0.001c1.21-1.11 2.83-1.79 4.608-1.79s3.398 0.68 4.613 1.794l-0.005-0.005c20.247 20.153 47.81 32.972 78.359 34.127l0.216 0.006c1.081 0.038 2.351 0.060 3.626 0.060 60.664 0 109.841-49.178 109.841-109.841 0-0.453-0.003-0.906-0.008-1.357l0.001 0.069c-0.137-91.341-75.366-153.19-162.543-224.87zM923.58 98.748c-3.808-33.249-31.789-58.834-65.744-58.834-2.066 0-4.109 0.095-6.126 0.28l0.259-0.019h-248.559c43.384 37.777 71.478 92.148 74.325 153.119l0.018 0.481c0.008 0.529 0.013 1.153 0.013 1.778 0 67.865-55.015 122.88-122.88 122.88-1.469 0-2.932-0.026-4.388-0.077l0.211 0.006c-21.529-20.839-50.907-33.683-83.285-33.683s-61.756 12.844-83.318 33.714l0.032-0.031c-1.223 0.044-2.66 0.068-4.104 0.068-68.091 0-123.29-55.199-123.29-123.29 0-0.48 0.003-0.959 0.008-1.438l-0.001 0.073c2.991-61.572 31.369-115.974 74.81-153.362l0.283-0.238h-246.238c-1.758-0.166-3.802-0.261-5.867-0.261-33.956 0-61.936 25.584-65.716 58.528l-0.028 0.305v17.613c0 0.341 0 0.751 0 1.024 0 147.524 138.172 279.006 290.543 333.687 44.567-31.311 99.952-50.039 159.711-50.039 61.257 0 117.918 19.679 164.006 53.059l-0.815-0.562c172.169-60.826 296.277-222.549 296.277-336.077 0 0 0-0.683 0-1.024z" />
<glyph unicode="&#xe902;" glyph-name="sustentabilidad" horiz-adv-x="1096" d="M1087.966 602.214c0.017 0.192 0.027 0.415 0.027 0.641 0 1.317-0.339 2.555-0.934 3.631l0.020-0.039c-32.115 117.89-107.863 214.303-208.393 272.804l-2.141 1.151c-1.211 0.767-2.686 1.223-4.267 1.223s-3.056-0.455-4.3-1.242l0.033 0.020c-106.643-61.427-184.273-163.073-212.668-283.713l-0.597-3.007c-40.375-18.826-74.692-38.601-107.116-60.927l2.464 1.603c-16.708 181.635-120.020 335.988-267.772 422.883l-2.564 1.394c-1.214 0.835-2.716 1.333-4.335 1.333s-3.121-0.498-4.361-1.35l0.026 0.017c-142.521-84.598-242.714-227.703-267.778-395.364l-0.373-3.040c-0.223-0.516-0.391-1.115-0.474-1.74l-0.004-0.035c0-0.887 0-1.775 0-2.662-1.497-14.239-2.35-30.763-2.35-47.485 0-7.765 0.184-15.488 0.548-23.163l-0.041 1.085c10.65-182.434 114.551-338.406 264.367-421.911l2.624-1.343v-118.921c0-4.374 3.545-7.919 7.919-7.919s7.919 3.545 7.919 7.919v0 118.921c152.421 84.853 256.301 240.827 266.858 421.858l0.065 1.395c0.478 9.899 0.546 19.661 0.41 29.491 28.908 20.265 62.008 39.825 96.6 56.81l4.435 1.967c-2.091-14.542-3.285-31.336-3.285-48.408 0-5.568 0.127-11.107 0.378-16.613l-0.028 0.781c9.191-144.546 93.167-267.571 213.342-331.605l2.176-1.058v-127.863c0-4.374 3.545-7.919 7.919-7.919s7.919 3.545 7.919 7.919c0 0 0 0 0 0v0 127.795c122.378 65.108 206.377 188.155 215.526 331.554l0.060 1.178c0.221 4.701 0.346 10.21 0.346 15.75 0 27-2.986 53.302-8.646 78.594l0.449-2.389zM275.593 942.592c146.845-87.163 246.768-240.011 259.318-417.001l0.095-1.679c-18.295-12.629-35.908-25.395-53.043-37.956-55.366-47.591-121.531-84.368-194.182-106.135l-3.791-0.975v250.061c0 4.374-3.545 7.919-7.919 7.919s-7.919-3.545-7.919-7.919c0 0 0 0 0 0v0-252.587c-13.095-2.189-28.2-3.454-43.596-3.482h-0.027c-3.475-0.195-7.54-0.306-11.632-0.306-59.215 0-112.996 23.262-152.705 61.146l0.087-0.083c-26.004 28.461-41.934 66.511-41.934 108.281 0 4.441 0.18 8.841 0.533 13.191l-0.037-0.572c23.115 165.762 119.215 305.207 254.215 386.751l2.4 1.345zM18.091 467.524c7.943-17.37 18.062-32.274 30.251-45.206l-0.077 0.082c42.471-40.865 100.298-66.034 164.005-66.034 4.144 0 8.264 0.107 12.356 0.317l-0.573-0.024c15.415 0.024 30.527 1.239 45.273 3.559l-1.65-0.214v-278.869c-137.995 79.986-233.247 220.526-249.552 384.305l-0.168 2.085zM534.596 486.98c-10.125-173.749-107.538-322.69-248.688-404.562l-2.397-1.283v281.6c80.14 22.773 149.596 60.778 208.274 111.009l-0.744-0.621c14.268 10.445 28.809 21.026 43.759 31.539-0.205-5.871-0.068-11.742-0.341-17.681zM1068.51 616.209c-46.361 17.779-99.99 28.077-156.024 28.077-1.452 0-2.902-0.007-4.351-0.021l0.222 0.002c-9.626 0-18.842 0-28.058 0v214.903c89.206-55.355 155.861-139.817 187.243-239.887l0.831-3.074zM864.461 858.829v-215.381c-69.822-2.986-135.303-18.186-195.478-43.509l3.717 1.388c29.212 109.681 98.001 199.924 189.776 256.443l1.848 1.059zM664.713 511.078c-0.21 4.493-0.329 9.76-0.329 15.056 0 19.878 1.684 39.363 4.917 58.319l-0.287-2.036c57.397 25.603 124.116 41.89 194.249 45.081l1.199 0.043v-431.787c-113.559 63.425-191.123 179.425-199.826 314.181l-0.059 1.143zM1080.047 511.078c-8.665-135.895-86.201-251.916-197.788-314.317l-1.96-1.007v432.333c9.148 0 18.295 0.478 27.785 0.341 1.575 0.021 3.434 0.033 5.296 0.033 57.525 0 112.37-11.476 162.37-32.263l-2.802 1.032c4.66-21.148 7.329-45.439 7.329-70.353 0-5.557-0.133-11.083-0.395-16.575l0.030 0.776z" />
<glyph unicode="&#xe903;" glyph-name="consumo" horiz-adv-x="1351" d="M1317.344 298.881h-60.33v30.326c19.393 25.689 31.137 58.1 31.356 93.245v0.051c0.004 0.331 0.006 0.722 0.006 1.114 0 43.487-29.051 80.188-68.804 91.756l-0.675 0.168c-11.296 43.536-49.804 75.329-95.893 76.296l-0.107 0.002c-22.644-0.001-43.458-7.838-59.879-20.946l0.193 0.149c-13.031 8.029-28.807 12.81-45.696 12.877h-0.019c-40.981-0.638-75.453-27.785-87.067-65.018l-0.176-0.656c-47.315-5.418-83.723-45.235-83.723-93.555 0-0.701 0.008-1.4 0.023-2.098l-0.002 0.104c0-0.060 0-0.13 0-0.201 0-23.286 8.186-44.659 21.837-61.4l-0.139 0.176c-40.055-10.015-74.535-22.139-107.505-37.016l3.972 1.603v232.37c-2.801 61.25-22.791 117.324-55.216 164.129l0.68-1.038-26.141 194.254c-0.485 23.507-18.766 42.593-41.891 44.353l-0.153 0.009h-80.869c-23.232-1.641-41.518-20.665-41.979-44.060l-0.001-0.045-26.141-194.511c-31.769-45.758-51.763-101.839-54.511-162.413l-0.024-0.677v-440.596c-31.997-18.955-69.1-33.882-108.488-42.778l-2.578-0.49v298.173c-0.836 12.289-5.383 23.377-12.516 32.309l0.090-0.116c-1.545 2.962-3.348 5.988-5.344 9.143l-0.451 0.708c5.485 5.943 8.858 13.907 8.885 22.658v1.487c0 0.020 0 0.044 0 0.067 0 13.548-10.983 24.531-24.531 24.531-0.136 0-0.271-0.001-0.407-0.003h-259.328c-0.134 0.003-0.292 0.004-0.451 0.004-13.513 0-24.467-10.954-24.467-24.467 0-0.047 0-0.093 0-0.14v0.007-1.481c0.009-8.792 3.411-16.787 8.968-22.748l-0.018 0.020c-1.593-2.975-3.258-5.524-5.115-7.916l0.093 0.125-0.579-0.773c-7.112-8.953-11.787-20.134-12.861-32.349l-0.016-0.231v-377.819c0-0.024 0-0.053 0-0.082 0-8.732 4.138-16.497 10.56-21.441l0.063-0.047c3.845-13.369 11.473-24.625 21.642-32.871l0.121-0.095 0.837-0.773c2.583-2.624 6.173-4.25 10.144-4.25 0.056 0 0.111 0 0.167 0.001h240.797c0.058-0.001 0.127-0.001 0.196-0.001 4.011 0 7.636 1.652 10.231 4.312l0.003 0.003 0.515 0.579c10.759 8.047 18.577 19.508 21.871 32.757l0.085 0.402c6.485 4.979 10.624 12.734 10.624 21.456 0 0.017 0 0.035 0 0.052v-0.003 64.386c41.923 9.081 79.041 23.486 113.043 42.753l-1.976-1.030v-64.966c0-3.348 0-8.692 0-12.105v-1.159c-0.039-0.962-0.062-2.091-0.062-3.225 0-44.977 35.15-81.744 79.479-84.33l0.228-0.011h167.404c44.594 2.595 79.774 39.391 79.774 84.405 0 1.157-0.023 2.308-0.069 3.454l0.005-0.164v1.159c0 3.284 0 8.628 0 11.976v273.384c32.151 14.978 70.034 28.229 109.372 37.758l4.27 0.874v-346.785c2.391-37.17 33.124-66.412 70.687-66.412 1.975 0 3.93 0.081 5.864 0.239l-0.254-0.017h226.125c1.308-0.085 2.836-0.134 4.375-0.134 37.638 0 68.48 29.094 71.264 66.019l0.015 0.239v52.668h60.33c19.319 2.323 34.147 18.615 34.147 38.371 0 1.203-0.055 2.393-0.162 3.567l0.011-0.151v160.966c0.088 0.975 0.137 2.11 0.137 3.256 0 19.659-14.685 35.889-33.684 38.318l-0.192 0.020zM14.165 373.376c1.143 9.493 4.84 17.957 10.378 24.887l-0.076-0.098c2.509 3.288 4.88 6.997 6.938 10.897l0.209 0.435 1.674 2.897c0.584 1.007 0.928 2.216 0.928 3.505 0 2.293-1.089 4.331-2.778 5.625l-0.017 0.012c-4.861 3.552-7.984 9.232-7.984 15.643 0 0.001 0 0.002 0 0.003v0 1.481c0 0.021 0 0.046 0 0.072 0 5.69 4.612 10.302 10.302 10.302 0.136 0 0.271-0.003 0.406-0.008l-0.019 0.001h259.348c0.135 0.006 0.292 0.010 0.451 0.010 5.69 0 10.302-4.612 10.302-10.302 0-0.026 0-0.052 0-0.078v0.004-1.481c-0.021-6.387-3.138-12.042-7.929-15.543l-0.055-0.038c-1.766-1.316-2.898-3.399-2.898-5.747 0-1.322 0.359-2.56 0.985-3.623l-0.018 0.033 3.541-5.924c1.738-2.833 3.412-5.537 5.151-8.821 5.679-6.812 9.473-15.377 10.477-24.777l0.018-0.205v-300.748c-15.863-2.731-34.141-4.299-52.783-4.314h-0.014c-152.145 0-246.6 82.736-246.6 215.952zM313.561-4.507c0.002-0.091 0.004-0.199 0.004-0.307 0-4.743-2.564-8.887-6.381-11.121l-0.061-0.033c-1.833-1.134-3.098-3.037-3.345-5.248l-0.003-0.032c-2.196-11.579-8.792-21.315-17.946-27.591l-0.146-0.095-1.159-0.966h-241.32l-0.708 0.708c-8.858 6.766-15.279 16.327-17.959 27.352l-0.069 0.334c-0.245 2.21-1.484 4.088-3.254 5.198l-0.029 0.017c-3.878 2.267-6.442 6.411-6.442 11.154 0 0.108 0.001 0.215 0.004 0.323v-0.016 202.237c32.901-90.849 121.239-144.354 246.6-144.354 18.672 0.043 36.954 1.563 54.779 4.45l-1.982-0.265zM453.022 558.294c3.144 58.805 22.507 112.529 53.651 157.468l-0.661-1.009c0.603 0.874 1.016 1.923 1.156 3.057l0.003 0.034 26.398 196.507c0 0.062-0.001 0.134-0.001 0.207 0 16.118 12.112 29.408 27.731 31.263l0.149 0.014h80.869c15.78-1.93 27.882-15.248 27.882-31.393 0-0.146-0.001-0.291-0.003-0.436v0.022l26.398-196.185c0.151-1.167 0.563-2.215 1.175-3.115l-0.016 0.025c30.739-43.834 50.152-97.625 52.964-155.772l0.026-0.686v-238.809c-73.132-36.857-135.991-77.010-194.32-122.684l2.513 1.895c-36.314-26.527-70.825-51.509-105.98-72.757zM750.809 36.765c0-3.284 0-8.563 0-11.783v-0.966c0.049-0.981 0.076-2.131 0.076-3.287 0-37.262-28.775-67.803-65.316-70.614l-0.241-0.015h-166.632c-36.781 2.828-65.554 33.368-65.554 70.629 0 1.133 0.027 2.261 0.079 3.381l-0.006-0.158v0.966c0 3.219 0 8.499 0 11.783v72.95c44.401 26.828 81.709 52.319 117.57 79.614l-3.22-2.35c53.393 41.752 113.474 80.392 176.999 113.312l6.438 3.035zM861.038 423.082c-0.018 0.633-0.028 1.378-0.028 2.126 0 42.425 33.143 77.108 74.95 79.57l0.217 0.010c3.111 0.216 5.658 2.393 6.427 5.294l0.011 0.050c8.543 34.242 38.722 59.324 74.87 60.007l0.075 0.001c0.092 0 0.202 0.001 0.311 0.001 15.651 0 30.178-4.814 42.181-13.043l-0.255 0.165c1.124-0.771 2.514-1.232 4.011-1.232 1.795 0 3.435 0.662 4.69 1.754l-0.009-0.007c14.382 12.879 33.47 20.763 54.399 20.797h0.007c41.015-1.015 74.919-30.249 83.087-68.969l0.1-0.568c0.631-2.716 2.746-4.809 5.425-5.4l0.047-0.009c36.142-8.645 62.595-40.673 62.595-78.88 0-0.473-0.004-0.945-0.012-1.417l0.001 0.071c-0.416-30.495-9.986-58.675-26.079-82.010l0.324 0.497c-58.895 24.978-127.385 39.507-199.265 39.533h-0.010c-4.856 0.12-10.576 0.189-16.311 0.189-52.822 0-104.285-5.815-153.785-16.84l4.687 0.877c-13.996 14.815-22.6 34.853-22.6 56.9 0 0.097 0 0.193 0 0.289v-0.015zM1242.785 2.382c-2.773-29.347-27.29-52.126-57.128-52.126-1.535 0-3.055 0.060-4.56 0.179l0.199-0.013h-226.704c-1.549-0.149-3.35-0.234-5.17-0.234-29.811 0-54.287 22.84-56.883 51.976l-0.016 0.219 0.322 350.068c42.641 9.268 91.624 14.576 141.847 14.576 5.138 0 10.263-0.056 15.374-0.166l-0.762 0.013c0.027 0 0.058 0 0.089 0 69.755 0 136.226-14.057 196.736-39.493l-3.345 1.248zM1337.111 96.773c0-15.195-8.885-27.557-19.767-27.557h-60.33v215.694h60.33c10.753 0 19.767-12.877 19.767-27.429z" />
<glyph unicode="&#xe904;" glyph-name="marcas" horiz-adv-x="1688" d="M1654.579 301.705h-60.006v30.242c16.004 20.145 26.729 45.149 29.708 72.481l0.056 0.633c0.358 0.44 0.697 0.931 0.995 1.448l0.029 0.054c0.419 0.859 0.663 1.869 0.663 2.935s-0.245 2.077-0.681 2.976l0.018-0.041c0.443 3.77 0.715 8.18 0.751 12.646v0.052c0.004 0.341 0.007 0.744 0.007 1.147 0 43.284-28.919 79.814-68.489 91.323l-0.672 0.167c-11.256 43.341-49.585 74.992-95.464 75.979l-0.109 0.002c-0.038 0-0.082 0-0.127 0-22.481 0-43.16-7.712-59.537-20.635l0.204 0.155c-12.98 7.905-28.672 12.597-45.457 12.629h-0.009c-64.376-46.906-117.942-88.705-170.201-132.027l5.678 4.573c-18.773-3.004-37.001-6.827-54.613-10.718-6.856 47.907-17.873 90.885-32.969 131.892l1.43-4.438c-3.421 9.505-12.359 16.179-22.857 16.179-0.004 0-0.009 0-0.013 0h-281.121c-10.475-0.025-19.386-6.691-22.748-16.010l-0.053-0.169c-17.816-45.543-29.77-98.253-33.368-153.244l-0.083-1.585c1.205-50.899 23.847-96.281 59.209-127.636l0.183-0.159c-28.058-19.388-54.613-38.98-81.237-58.231l-25.259-18.364v344.337c-2.89 61.024-22.898 116.854-55.287 163.429l0.673-1.023-26.010 193.399c-0.481 23.4-18.676 42.402-41.694 44.159l-0.153 0.009h-80.555c-23.079-1.727-41.223-20.606-41.778-43.841l-0.001-0.054-26.010-193.673c-31.758-45.537-51.775-101.378-54.588-161.716l-0.026-0.69v-494.455c-12.288-1.092-24.713-1.843-37.615-1.843-3.209 0-6.281 0-9.421 0v311.228c-0.857 12.218-5.374 23.239-12.447 32.136l0.091-0.119c-1.502 2.935-3.345 5.939-5.325 9.148l-0.41 0.683c5.429 5.918 8.768 13.829 8.806 22.52v1.51c0 0.042 0 0.091 0 0.14 0 13.46-10.911 24.371-24.371 24.371-0.144 0-0.288-0.001-0.432-0.004h-258.299c-0.102 0.002-0.221 0.002-0.341 0.002-13.498 0-24.439-10.942-24.439-24.439 0-0.025 0-0.050 0-0.074v0.004-1.502c0.024-8.746 3.422-16.694 8.96-22.615l-0.017 0.019c-1.612-2.972-3.285-5.517-5.147-7.91l0.095 0.127-0.546-0.751c-7.017-8.948-11.608-20.103-12.615-32.275l-0.015-0.22v-376.218c0.027-8.722 4.138-16.477 10.521-21.458l0.061-0.046c3.82-13.312 11.406-24.524 21.521-32.742l0.119-0.094 0.819-0.751c2.577-2.614 6.157-4.234 10.115-4.234 0.068 0 0.136 0 0.204 0.001h239.743c0.066-0.001 0.145-0.002 0.223-0.002 3.983 0 7.581 1.648 10.15 4.299l0.55 0.55c10.702 8.029 18.478 19.446 21.761 32.64l0.084 0.401c6.458 4.937 10.582 12.645 10.582 21.316 0 0.042 0 0.084 0 0.126v-0.007 50.039h9.421c12.834 0 25.327 0.751 37.615 1.775v-10.65c0-3.277 0-8.67 0-12.083v-1.092c-0.039-0.956-0.061-2.077-0.061-3.204 0-44.79 35.012-81.403 79.161-83.962l0.226-0.010h165.956c44.624 2.323 79.927 39.072 79.927 84.066 0 1.070-0.020 2.135-0.060 3.196l0.005-0.153v1.092c0 3.277 0 8.67 0 11.947v157.559l33.587 24.371c27.307 19.797 54.613 40.073 83.9 60.006 30.614-24.774 68.908-41.21 110.818-45.328l0.866-0.069h7.714v-287.198h-120.832c-3.902 0-7.066-3.163-7.066-7.066s3.163-7.066 7.066-7.066v0h256.683c3.902 0 7.066 3.163 7.066 7.066s-3.163 7.066-7.066 7.066v0h-121.242v287.13h8.329c97.696 7.091 175.109 84.975 181.423 182.239l0.030 0.579c0 4.028 0 8.533-0.546 13.107 15.974 3.686 32.358 6.827 49.22 9.899-1.043-5.363-1.64-11.53-1.64-17.836 0-28.487 12.176-54.13 31.608-72.008l0.070-0.063v-346.931c2.472-37.005 33.094-66.084 70.508-66.084 1.902 0 3.787 0.075 5.651 0.223l-0.246-0.016h225.758c1.221-0.075 2.649-0.117 4.087-0.117 37.467 0 68.175 28.939 70.992 65.685l0.015 0.242v52.497h60.006c19.357 2.095 34.292 18.347 34.292 38.088 0 1.228-0.058 2.442-0.171 3.64l0.012-0.153v160.085c0.095 1.012 0.15 2.189 0.15 3.379 0 19.844-15.12 36.157-34.467 38.047l-0.157 0.012zM14.199 375.91c1.128 9.461 4.805 17.9 10.316 24.811l-0.076-0.099c2.508 3.27 4.885 6.956 6.956 10.83l0.212 0.434 1.638 2.935c0.64 1.020 1.020 2.261 1.020 3.59 0 2.283-1.121 4.305-2.843 5.544l-0.020 0.014c-4.842 3.536-7.959 9.184-7.987 15.56v1.506c-0.001 0.043-0.001 0.094-0.001 0.145 0 5.655 4.585 10.24 10.24 10.24 0.144 0 0.288-0.003 0.431-0.009l-0.020 0.001h258.321c0.122 0.005 0.266 0.008 0.411 0.008 5.655 0 10.24-4.585 10.24-10.24 0-0.051 0-0.102-0.001-0.152v0.008-1.502c-0.011-6.35-3.105-11.975-7.865-15.459l-0.054-0.038c-1.786-1.249-2.94-3.296-2.94-5.612 0-1.335 0.383-2.58 1.045-3.632l-0.017 0.028c1.161-2.116 2.389-4.028 3.55-5.939s3.345-5.461 5.12-8.806c5.656-6.796 9.433-15.34 10.427-24.714l0.017-0.203v-310.818c-184.32 8.26-298.121 114.415-298.121 281.327zM312.32-0.307c-0.040-4.896-2.758-9.148-6.76-11.366l-0.067-0.034c-1.797-1.159-3.046-3.038-3.341-5.219l-0.004-0.038c-2.242-11.417-8.773-21.007-17.809-27.213l-0.145-0.094-1.229-0.956h-240.23l-0.751 0.751c-8.8 6.654-15.191 16.086-17.885 26.975l-0.069 0.332c-0.28 2.225-1.534 4.111-3.315 5.239l-0.030 0.018c-4.068 2.253-6.787 6.505-6.827 11.395v248.087c36.727-118.374 143.36-191.147 298.121-197.973zM387.413 560.026c3.126 58.554 22.409 112.047 53.428 156.788l-0.658-1.003c0.629 0.863 1.065 1.905 1.225 3.036l0.004 0.036 26.283 195.652c-0.001 0.080-0.001 0.175-0.001 0.27 0 16.017 12.044 29.222 27.57 31.050l0.147 0.014h80.555c15.717-1.874 27.787-15.125 27.787-31.194 0-0.145-0.001-0.291-0.003-0.436v0.022l26.283-195.379c0.163-1.16 0.574-2.199 1.177-3.099l-0.017 0.027c30.646-43.631 49.986-97.199 52.745-155.112l0.026-0.673v-354.509c-81.599-68.768-182.12-117.677-292.649-137.986l-3.901-0.595zM683.964 40.721c0-3.209 0-8.533 0-11.674v-0.956c0.050-0.994 0.079-2.159 0.079-3.331 0-37.087-28.657-67.481-65.036-70.246l-0.238-0.015h-165.956c-36.616 2.78-65.273 33.174-65.273 70.261 0 1.172 0.029 2.336 0.085 3.494l-0.006-0.163v0.887c0 3.209 0 8.533 0 11.742v11.742c114.126 20.135 214.635 67.919 297.66 136.19l-1.11-0.885zM759.057 420.079c3.682 54.911 15.336 106.027 33.84 153.727l-1.208-3.54c1.412 3.972 5.117 6.775 9.483 6.827h281.128c4.386-0.009 8.111-2.83 9.468-6.756l0.021-0.071c13.662-36.265 24.525-78.781 30.692-122.802l0.369-3.218c-116.922-31.305-219.221-80.705-309.503-145.744l2.781 1.906c-33.82 29.236-55.413 71.826-56.521 119.481l-0.004 0.191zM1124.489 420.079c-6.136-90.331-77.686-162.141-167.348-168.653l-0.588-0.034h-28.945c-38.188 3.836-72.448 18.125-100.595 39.928l0.448-0.334c84.713 60.609 183.591 108.257 290.128 137.344l6.491 1.51c0.614-3.413 0.887-6.758 0.887-9.762zM1274.675 506.505c0.054-0.002 0.118-0.002 0.182-0.002 3.214 0 5.909 2.221 6.635 5.212l0.010 0.047c8.519 34.080 38.558 59.041 74.539 59.732l0.076 0.001c15.723-0.022 30.298-4.923 42.296-13.268l-0.244 0.161c1.109-0.811 2.5-1.297 4.004-1.297 1.806 0 3.449 0.702 4.67 1.847l-0.004-0.003c14.365 12.716 33.368 20.48 54.185 20.48 0.007 0 0.013 0 0.020 0h-0.001c40.803-1.081 74.517-30.147 82.706-68.654l0.101-0.568c0.632-2.724 2.737-4.83 5.412-5.452l0.049-0.010c35.991-8.593 62.338-40.481 62.338-78.522 0-0.451-0.004-0.9-0.011-1.349l0.001 0.068c0-1.638 0-3.413 0-5.12-75.083 31.326-162.31 49.555-253.786 49.63h-0.029c-5.411 0.111-11.791 0.174-18.186 0.174-46.56 0-92.341-3.339-137.116-9.789l5.115 0.605c11.81 26.435 37.338 44.794 67.289 46.075l0.159 0.005zM1580.032 6.178c-2.827-29.206-27.247-51.854-56.956-51.854-1.578 0-3.141 0.064-4.687 0.189l0.203-0.013h-225.143c-1.434-0.129-3.102-0.202-4.787-0.202-29.675 0-54.041 22.73-56.637 51.73l-0.016 0.218v350.14c0 0.027 0.001 0.059 0.001 0.091 0 2.135-0.98 4.040-2.514 5.292l-0.012 0.010c-17.882 15.223-29.151 37.752-29.151 62.914 0 0.154 0 0.308 0.001 0.461v-0.024c0.033 7.285 0.953 14.34 2.655 21.084l-0.129-0.604c41.168 6.452 88.646 10.138 136.985 10.138 6.274 0 12.533-0.062 18.778-0.186l-0.934 0.015c0.026 0 0.058 0 0.090 0 91.090 0 177.877-18.419 256.842-51.735l-4.345 1.627c-2.661-24.964-12.533-47.224-27.464-65.115l0.157 0.194c-1.507-1.261-2.459-3.143-2.459-5.247 0-0.051 0.001-0.103 0.002-0.154v0.008zM1674.377 100.25c0-15.155-8.806-27.307-19.661-27.307h-60.075v214.767h60.006c10.718 0 19.729-12.493 19.729-27.307z" />
<glyph unicode="&#xe905;" glyph-name="innovacion" horiz-adv-x="707" d="M706.97 606.379c-0.062 195.291-158.39 353.581-353.69 353.581-6.652 0-13.261-0.184-19.822-0.546l0.912 0.040c-185.869-12.543-332.188-165.253-334.504-352.642l-0.002-0.228c0.013-26.91 3.047-53.104 8.78-78.271l-0.452 2.358c14.269-63.484 44.006-118.579 85.073-163.055l-0.218 0.239c50.541-54.366 82.806-126.332 86.67-205.754l0.029-0.752c-28.010-4.235-49.233-28.141-49.233-57.004 0-31.821 25.796-57.617 57.617-57.617 0.124 0 0.249 0 0.373 0.001h20.461v-67.038c0.039-23.926 19.424-43.311 43.346-43.349h201.937c23.95 0.039 43.349 19.463 43.349 43.418 0 0.024 0 0.048 0 0.072v-0.004 66.901h20.48c0.191-0.002 0.417-0.004 0.644-0.004 31.821 0 57.617 25.796 57.617 57.617 0 28.869-21.231 52.778-48.931 56.967l-0.318 0.040c3.893 80.099 36.132 151.993 86.816 206.503l-0.185-0.202c57.703 62.607 93.125 146.519 93.252 238.703v0.026zM454.383-47.206h-201.933c-14.651 0.039-26.517 11.905-26.556 26.552v66.905h254.771v-66.901c-0.037-14.532-11.71-26.326-26.193-26.555h-0.022zM335.189 942.66c5.445 0.314 11.815 0.494 18.227 0.494 185.987 0 336.759-150.772 336.759-336.759 0-0.005 0-0.011 0-0.016v0-2.116c-29.699 11.458-64.062 18.096-99.976 18.096-0.612 0-1.224-0.002-1.836-0.006h0.094c-0.933 0.008-2.037 0.012-3.141 0.012-103.582 0-198.197-38.391-270.393-101.721l0.467 0.401c-42.789-39.957-98.837-66.204-160.865-71.475l-0.995-0.068c-4.727-0.677-10.187-1.064-15.736-1.064-53.408 0-98.449 35.824-112.404 84.754l-0.201 0.824c-5.034 21.812-7.919 46.859-7.919 72.58 0 179.486 140.502 326.157 317.521 336.025l0.875 0.039zM559.172 104.141c0-22.622-18.338-40.96-40.96-40.96v0h-329.387c-22.622 0-40.96 18.338-40.96 40.96s18.338 40.96 40.96 40.96c0 0 0 0 0 0h329.591c22.563-0.078 40.823-18.386 40.823-40.96 0 0 0 0 0 0v0zM510.089 161.894h-313.344c-4.135 84.265-38.070 159.889-91.399 217.231l0.194-0.211c-22.918 24.831-42.273 53.424-56.956 84.649l-0.866 2.050c27.010-20.629 61.247-33.053 98.385-33.053 2.444 0 4.876 0.054 7.295 0.16l-0.344-0.012c66.807 5.43 126.308 33 172.018 75.268l-0.191-0.174c69.467 60.931 161.094 98.103 261.402 98.103 0.621 0 1.242-0.001 1.862-0.004h-0.096c0.693 0.007 1.512 0.010 2.332 0.010 35.689 0 69.73-7.051 100.808-19.836l-1.765 0.643c-4.949-80.601-37.554-152.757-88.347-207.903l0.214 0.236c-53.117-57.183-87.030-132.854-91.105-216.362l-0.031-0.795z" />
<glyph unicode="&#xe906;" glyph-name="organigrama" horiz-adv-x="1466" d="M1459.063 369.22c0.001 0.043 0.001 0.094 0.001 0.145 0 1.259-0.277 2.454-0.774 3.526l0.022-0.052c-23.718 107.045-96.962 193.093-193.899 234.093l-2.163 0.812c40.485 37.526 65.741 90.989 65.741 150.352 0 113.108-91.692 204.8-204.8 204.8s-204.8-91.692-204.8-204.8c0-59.362 25.256-112.825 65.609-150.231l0.132-0.121c-120.006-50.413-202.863-166.739-203.434-302.486v-0.072c-33.792-20.48-65.468-42.735-95.573-64.58v63.625c-0.179 136.158-83.081 252.908-201.137 302.704l-2.161 0.809c40.465 37.524 65.707 90.974 65.707 150.32 0 113.108-91.692 204.8-204.8 204.8s-204.8-91.692-204.8-204.8c0-59.346 25.242-112.796 65.576-150.2l0.131-0.12c-117.4-49.396-199.147-161.789-203.15-293.736l-0.012-0.494v-1.161c0-1.434 0-2.867 0-4.301s0-2.526 0-3.823v-216.747c-0.001-0.036-0.001-0.078-0.001-0.121 0-0.968 0.201-1.888 0.564-2.722l-0.017 0.044c5.504-83.246 74.375-148.685 158.531-148.685 0.019 0 0.037 0 0.056 0h366.589c85.896 0.472 155.725 68.606 158.916 153.786l0.009 0.292c0.032 0.277 0.050 0.597 0.050 0.922s-0.018 0.645-0.054 0.96l0.004-0.039v128.41c30.447 22.050 62.054 44.373 95.573 65.468v-198.315c0.010-1.010 0.21-1.97 0.565-2.852l-0.019 0.053c5.504-83.246 74.375-148.685 158.531-148.685 0.019 0 0.037 0 0.056 0h366.589c85.896 0.472 155.725 68.606 158.916 153.786l0.009 0.292c0.032 0.277 0.050 0.597 0.050 0.922s-0.018 0.645-0.054 0.96l0.004-0.039v212.378c0.001 0.281 0.001 0.613 0.001 0.946 0 22.638-2.287 44.741-6.643 66.092l0.361-2.117zM154.351 757.385c0 0.058 0 0.126 0 0.194 0 103.946 84.265 188.211 188.211 188.211s188.211-84.265 188.211-188.211c0-57.408-25.702-108.812-66.227-143.334l-0.265-0.22c-32.053 11.593-69.044 18.295-107.601 18.295-0.044 0-0.087 0-0.131 0h-28.256c-38.571-0.005-75.582-6.681-109.942-18.939l2.286 0.711c-40.665 34.653-66.287 85.914-66.287 143.159 0 0.047 0 0.093 0 0.14v-0.007zM448.58 602.146c-29.66-20.615-66.435-32.935-106.086-32.935s-76.426 12.32-106.704 33.341l0.617-0.406c27.285 8.662 58.667 13.654 91.214 13.654 0.236 0 0.473 0 0.709-0.001h28.225c0.285 0.001 0.622 0.001 0.96 0.001 32.495 0 63.824-4.992 93.263-14.251l-2.199 0.596zM217.634 595.661c34.089-26.716 77.591-42.842 124.86-42.842s90.77 16.127 125.304 43.178l-0.444-0.335c118.42-46.047 200.863-159.053 201.045-291.339v-75.594c-6.827-4.847-13.653-9.762-20.070-14.609-111.753-81.92-208.213-152.098-345.839-152.098-174.763 0-283.853 94.208-285.901 245.76 1.67 130.924 83.679 242.276 198.919 287.152l2.127 0.729zM668.194 93.491v-1.434c-2.086-77.252-64.976-139.138-142.427-139.605h-366.637c-0.030 0-0.066 0-0.102 0-76.161 0-138.351 59.817-142.152 135.033l-0.014 0.339c-0.071 0.758-0.216 1.453-0.429 2.118l0.019-0.070v122.88c38.161-105.267 140.629-167.39 286.037-167.39 143.36 0 246.238 75.435 355.601 155.238l10.308 7.578zM934.844 757.385c0 0.058 0 0.126 0 0.194 0 103.946 84.265 188.211 188.211 188.211s188.211-84.265 188.211-188.211c0-57.408-25.702-108.812-66.227-143.334l-0.265-0.22c-32.038 11.593-69.014 18.296-107.555 18.296-0.060 0-0.12 0-0.18 0h-28.253c-0.002 0-0.006 0-0.009 0-38.544 0-75.529-6.677-109.86-18.938l2.281 0.711c-40.583 34.614-66.151 85.795-66.151 142.949 0 0.121 0 0.241 0 0.362v-0.019zM1229.073 602.146c-29.66-20.615-66.435-32.935-106.086-32.935s-76.426 12.32-106.704 33.341l0.617-0.406c27.285 8.662 58.667 13.654 91.214 13.654 0.236 0 0.473 0 0.709-0.001h28.225c0.345 0.001 0.754 0.002 1.163 0.002 32.496 0 63.826-4.992 93.265-14.252l-2.199 0.597zM998.127 595.661c34.089-26.716 77.591-42.842 124.86-42.842s90.77 16.127 125.304 43.178l-0.444-0.335c93.821-36.444 164.526-114.131 190.639-210.184l0.508-2.194c-65.689 26.51-141.858 41.94-221.617 42.052h-0.045c-7.194 0.243-15.651 0.381-24.14 0.381-146.232 0-282.876-41.052-399.035-112.26l3.335 1.901c4.848 127.835 85.836 235.59 198.714 279.574l2.127 0.729zM1448.687 93.491v-1.434c-2.086-77.252-64.976-139.138-142.427-139.605h-366.637c-0.011 0-0.024 0-0.037 0-76.174 0-138.38 59.81-142.217 135.030l-0.014 0.343c-0.071 0.758-0.216 1.453-0.429 2.118l0.019-0.070v205.961c112.763 71.124 249.953 113.328 396.999 113.328 8.032 0 16.035-0.126 24.006-0.376l-1.165 0.029c0.069 0 0.15 0 0.232 0 81.61 0 159.34-16.615 229.991-46.647l-3.85 1.454c3.616-17.842 5.702-38.364 5.734-59.367v-0.025z" />
<glyph unicode="&#xe907;" glyph-name="rrhh" horiz-adv-x="1383" d="M1187.409 571.66c37.356 35.326 60.606 85.234 60.606 140.572 0 106.771-86.555 193.326-193.326 193.326s-193.326-86.555-193.326-193.326c0-56.681 24.393-107.666 63.254-143.028l0.156-0.14c-13.739-5.867-25.079-11.643-35.996-18.062l1.471 0.8-119.993 350.96c-10.688 33.449-41.496 57.246-77.862 57.246-0.393 0-0.784-0.003-1.176-0.008l0.059 0.001c-2.142 0-4.218 0-6.49 0h-0.195c-33.929-2.354-61.957-25.196-71.939-56.144l-0.16-0.575-120.123-351.219c-10.441 6.249-22.794 12.469-35.597 17.826l-1.978 0.734c38.129 35.404 61.911 85.807 61.911 141.764 0 106.735-86.526 193.261-193.261 193.261s-193.261-86.526-193.261-193.261c0-55.957 23.782-106.36 61.79-141.653l0.121-0.111c-110.879-46.642-188.080-152.802-191.823-277.424l-0.011-0.462v-1.103c0-1.428 0-2.726 0-4.153s0-2.401 0-3.569v-204.748c0-0.012 0-0.025 0-0.039 0-0.946 0.191-1.847 0.536-2.667l-0.017 0.045c5.197-78.627 70.247-140.436 149.733-140.436 0.017 0 0.034 0 0.051 0h345.83c81.076 0.518 146.967 64.82 150.032 145.218l0.008 0.28c0.033 0.263 0.051 0.567 0.051 0.876s-0.019 0.613-0.055 0.912l0.004-0.036v121.226c28.23 20.507 57.563 41.144 88.843 60.743v-181.71c-0.030-0.253-0.047-0.546-0.047-0.844s0.017-0.59 0.051-0.879l-0.003 0.035c2.663-81.156 68.97-145.965 150.471-146.211h346.311c0.017 0 0.037 0 0.057 0 79.44 0 144.461 61.737 149.7 139.849l0.025 0.456c0.329 0.799 0.52 1.727 0.52 2.699 0 0.032 0 0.064-0.001 0.096v-0.005 204.748c-0.034 129.83-79.737 241.036-192.878 287.389l-2.071 0.751zM876.88 711.771c0 0.105 0 0.229 0 0.353 0 98.169 79.582 177.751 177.751 177.751s177.751-79.582 177.751-177.751c0-53.597-23.722-101.653-61.238-134.243l-0.218-0.185c-29.289 10.202-63.049 16.094-98.186 16.094-0.092 0-0.185 0-0.277 0h-26.658c-37.63-0.023-73.676-6.778-107.009-19.123l2.136 0.693c-39.256 32.775-64.052 81.73-64.053 136.477v0zM1155.934 566.079c-28.277-20.016-63.476-31.995-101.473-31.995-36.746 0-70.875 11.203-99.158 30.38l0.62-0.397c26.781 8.973 57.62 14.169 89.666 14.212h26.693c0.049 0 0.108 0 0.167 0 29.832 0 58.628-4.435 85.765-12.681l-2.086 0.545zM883.37 532.852c0.715-0.237 1.539-0.374 2.394-0.374 1.515 0 2.929 0.429 4.129 1.172l-0.034-0.019c13.789 8.731 29.706 16.84 46.379 23.453l1.968 0.688c31.904-24.495 72.399-39.255 116.341-39.255 45.317 0 86.968 15.698 119.811 41.952l-0.383-0.296c89.626-33.871 157.348-107.465 182.456-198.713l0.487-2.077c-60.218 24.648-130.103 38.955-203.329 38.955-1.526 0-3.050-0.006-4.573-0.019l0.234 0.002c-6.671 0.221-14.513 0.346-22.385 0.346-138.945 0-268.74-39.172-378.945-107.076l3.126 1.792c1.149 37.166 9.079 72.175 22.586 104.259l-0.716-1.917c0.294 0.792 0.465 1.706 0.465 2.661s-0.17 1.869-0.482 2.715l0.018-0.054-74.112 234.73 69.699 220.648v0.844l109.221-319.42c0.884-2.538 2.953-4.457 5.526-5.115l0.055-0.012zM633.259 909.77c11.413 20.754 33.132 34.585 58.082 34.585s46.669-13.831 57.91-34.243l0.172-0.342c4.86-8.747 7.721-19.184 7.721-30.289 0-6.63-1.020-13.021-2.91-19.026l0.122 0.448-63.014-199.491-62.949 199.427c-1.808 5.621-2.851 12.088-2.851 18.799 0 11.066 2.835 21.471 7.819 30.526l-0.165-0.328zM145.887 711.771c0 0.063 0 0.137 0 0.212 0 98.133 79.553 177.686 177.686 177.686s177.686-79.553 177.686-177.686c0-54.159-24.23-102.658-62.442-135.249l-0.248-0.206c-30.238 10.938-65.135 17.262-101.51 17.262-0.064 0-0.128 0-0.192 0h-26.663c-0.051 0-0.111 0-0.171 0-36.351 0-71.23-6.3-103.606-17.868l2.15 0.67c-38.417 32.737-62.623 81.164-62.625 135.244v0zM423.579 564.976c-27.996-19.425-62.694-31.032-100.103-31.032s-72.107 11.607-100.689 31.416l0.586-0.384c25.839 8.234 55.56 12.98 86.389 12.98 0.133 0 0.266 0 0.398 0h26.652c0.366 0.002 0.799 0.003 1.232 0.003 30.497 0 59.902-4.675 87.538-13.347l-2.069 0.56zM205.657 559.070c32.175-25.251 73.249-40.495 117.884-40.495s85.709 15.244 118.301 40.81l-0.417-0.315c19.708-7.543 36.576-16.054 52.429-26.029l-1.225 0.72c1.154-0.735 2.561-1.171 4.070-1.171 0.866 0 1.698 0.144 2.474 0.408l-0.054-0.016c2.264 0.821 4.010 2.589 4.786 4.812l0.017 0.055 109.286 319.355v-0.909l69.699-220.648-74.177-234.73c-0.308-0.79-0.486-1.705-0.486-2.661s0.178-1.871 0.503-2.712l-0.017 0.051c13.955-32.957 22.065-71.281 22.065-111.499 0-0.066 0-0.132 0-0.198v0.010-71.386l-18.885-13.888c-105.522-77.097-196.701-143.681-326.688-143.681-165.032 0-268.087 88.973-270.034 232.459 1.771 123.691 79.411 228.807 188.393 271.035l2.013 0.686zM631.377 84.807v-1.428c-1.983-72.936-61.361-131.36-134.487-131.804h-346.33c-0.011 0-0.024 0-0.036 0-71.948 0-130.704 56.48-134.351 127.52l-0.013 0.325c-0.007 0.676-0.125 1.322-0.337 1.924l0.013-0.042v116.229c36.017-99.421 132.843-158.088 270.164-158.088 135.114 0 232.589 71.386 335.839 146.666l9.734 7.139zM646.952 223.751v60.094c0 0.114 0 0.25 0 0.386 0 41.319-8.153 80.734-22.939 116.723l0.744-2.047 66.584 210.848 66.649-210.848c-14.041-33.934-22.195-73.34-22.195-114.651 0-0.144 0-0.289 0-0.433v0.022c-31.345-19.469-60.743-39.846-88.908-60.094zM1367.302 81.433c-0.127-0.53-0.241-1.192-0.317-1.866l-0.007-0.081c-3.626-71.359-62.367-127.846-134.302-127.846-0.012 0-0.023 0-0.035 0h-346.869c-73.169 0.444-132.547 58.868-134.526 131.621l-0.004 0.184v191.509c106.906 67.764 237.084 107.988 376.657 107.988 7.554 0 15.081-0.118 22.578-0.352l-1.096 0.027c1.84 0.023 4.014 0.036 6.19 0.036 74.338 0 145.088-15.361 209.25-43.081l-3.424 1.317c3.508-17.118 5.516-36.792 5.516-56.934 0-0.039 0-0.077 0-0.116v0.006z" />
<glyph unicode="&#xe908;" glyph-name="noticias" horiz-adv-x="1638" d="M1482.243 947.114c-2.218 2.013-5.176 3.246-8.422 3.246-6.931 0-12.55-5.619-12.55-12.55 0-4.593 2.468-8.61 6.149-10.797l0.058-0.032c1.141-0.805 88.454-67.112 127.513-260.060-58.201 24.223-125.63 40.132-196.22 44.282l-1.694 0.080c-17.315 50.139-49.201 91.543-90.551 120.283l-0.789 0.519c-1.709 0.943-3.746 1.498-5.912 1.498-4.702 0-8.793-2.613-10.9-6.467l-0.032-0.065c-0.968-1.738-1.538-3.812-1.538-6.019 0-4.686 2.568-8.772 6.374-10.928l0.062-0.032c33.232-24.406 58.909-57.296 74.049-95.509l0.513-1.469c-9.329 0.403-18.59 0.805-28.254 1.007-7.68 0.249-16.71 0.391-25.774 0.391-120.744 0-235.608-25.179-339.627-70.573l5.477 2.13c-29.529 242.343-113.219 308.113-117.514 311.334-2.062 1.562-4.669 2.502-7.497 2.502-1.907 0-3.714-0.428-5.33-1.192l0.076 0.032-842.931-388.312c-4.314-2.028-7.248-6.337-7.248-11.332 0-0.003 0-0.007 0-0.010v0.001-238.182c0.006-5.067 3.030-9.426 7.371-11.377l0.079-0.032 842.461-372.339c1.449-0.678 3.146-1.074 4.936-1.074 0.034 0 0.068 0 0.102 0h-0.005c0.003 0 0.006 0 0.009 0 3.482 0 6.635 1.41 8.917 3.691v0c5.168 5.235 126.373 132.413 126.373 524.483 0.005 1.485 0.008 3.242 0.008 5 0 53.116-2.66 105.61-7.853 157.358l0.53-6.523c46.555 21.296 101.030 39.242 157.739 51.112l5.143 0.901c13.020-11.409 61.609-64.159 61.609-216.37 0.183-4.493 0.287-9.767 0.287-15.066 0-82.85-25.445-159.756-68.947-223.332l0.877 1.357c-1.634-2.090-2.621-4.756-2.621-7.652 0-6.824 5.476-12.37 12.274-12.481h0.010c0.014 0 0.030 0 0.047 0 3.868 0 7.323 1.769 9.6 4.542l0.017 0.022c46.406 65.818 74.171 147.676 74.171 236.020 0 5.953-0.126 11.876-0.376 17.767l0.028-0.841c0.839 8.989 1.317 19.44 1.317 30.002 0 71.443-21.889 137.773-59.325 192.65l0.761-1.182c43.759 7.554 94.154 11.871 145.559 11.871 6.563 0 13.11-0.070 19.639-0.21l-0.974 0.016c13.422 0 26.845-0.738 39.328-1.476 22.713-62.947 35.844-135.589 35.844-211.298 0-5.725-0.075-11.432-0.224-17.121l0.017 0.84c0.565-9.258 0.887-20.080 0.887-30.977 0-131.677-47.032-252.369-125.214-346.193l0.706 0.871c-2.343-2.282-3.796-5.468-3.796-8.993 0-6.921 5.602-12.533 12.519-12.55h0.002c3.341 0.011 6.369 1.34 8.594 3.493l-0.003-0.003c5.369 5.168 131.272 129.057 131.272 394.352 0.106 4.495 0.166 9.791 0.166 15.1 0 75.209-12.092 147.593-34.437 215.315l1.386-4.851c68.594-4.988 132.167-21.097 190.736-46.556l-3.761 1.456c1.368-0.572 2.957-0.904 4.624-0.904 0.547 0 1.085 0.036 1.613 0.105l-0.062-0.007c8.545-50.015 13.43-107.625 13.43-166.375 0-1.367-0.003-2.734-0.008-4.1l0.001 0.211c0-344.555-145.567-500.591-147.043-502.134-2.168-2.249-3.504-5.314-3.504-8.691 0-6.92 5.61-12.531 12.531-12.531 3.544 0 6.744 1.471 9.023 3.836l0.004 0.004c6.309 6.711 154.358 163.955 154.358 519.449-0.671 360.326-149.862 473.276-156.238 477.638zM852.729 932.35c18.322-18.456 79.998-94.293 103.42-297.241-94.25-47.329-175.261-98.963-250.415-157.739l3.24 2.441c-123.017-89.863-229.256-167.781-380.326-167.781-173.552 0-292.408 91.071-302.878 232.074 0 2.148 0 4.362-0.403 6.711zM965.277 463.973c0-332.877-90.535-470.525-114.091-500.457l-826.354 365.292v120.198c46.979-100.668 157.177-161.674 303.616-161.674 159.19 0 273.751 83.689 395.090 172.277 68.374 53.484 145.309 102.987 226.651 145.169l8.242 3.888c4.429-42.616 6.778-90.602 6.778-144.761z" />
<glyph unicode="&#xe909;" glyph-name="chevron-right" d="M414.165 140.502l256 256c16.683 16.683 16.683 43.691 0 60.331l-256 256c-16.683 16.683-43.691 16.683-60.331 0s-16.683-43.691 0-60.331l225.835-225.835-225.835-225.835c-16.683-16.683-16.683-43.691 0-60.331s43.691-16.683 60.331 0z" />
<glyph unicode="&#xe90a;" glyph-name="chevron-left" d="M670.165 200.832l-225.835 225.835 225.835 225.835c16.683 16.683 16.683 43.691 0 60.331s-43.691 16.683-60.331 0l-256-256c-16.683-16.683-16.683-43.691 0-60.331l256-256c16.683-16.683 43.691-16.683 60.331 0s16.683 43.691 0 60.331z" />
<glyph unicode="&#xe90b;" glyph-name="chevron-down" d="M225.835 524.502l256-256c16.683-16.683 43.691-16.683 60.331 0l256 256c16.683 16.683 16.683 43.691 0 60.331s-43.691 16.683-60.331 0l-225.835-225.835-225.835 225.835c-16.683 16.683-43.691 16.683-60.331 0s-16.683-43.691 0-60.331z" />
<glyph unicode="&#xe90c;" glyph-name="chevron-up" d="M798.165 328.832l-256 256c-16.683 16.683-43.691 16.683-60.331 0l-256-256c-16.683-16.683-16.683-43.691 0-60.331s43.691-16.683 60.331 0l225.835 225.835 225.835-225.835c16.683-16.683 43.691-16.683 60.331 0s16.683 43.691 0 60.331z" />
<glyph unicode="&#xe90d;" glyph-name="clock" d="M511.981 960c-0.011 0-0.024 0-0.038 0-282.78 0-512.019-229.239-512.019-512.019s229.239-512.019 512.019-512.019c282.78 0 512.019 229.239 512.019 512.019v0c-0.321 282.637-229.346 511.676-511.948 512.019h-0.033zM533.307-20.257v62.926c0 11.778-9.548 21.326-21.326 21.326s-21.326-9.548-21.326-21.326v-62.926c-242.021 11.585-435.327 204.892-446.871 445.844l-0.041 1.067h62.926c11.778 0 21.326 9.548 21.326 21.326s-9.548 21.326-21.326 21.326h-62.926c11.566 242.037 204.879 435.363 445.844 446.908l1.068 0.041v-62.926c0-11.778 9.548-21.326 21.326-21.326s21.326 9.548 21.326 21.326v62.926c242.021-11.585 435.327-204.892 446.871-445.844l0.041-1.067h-62.926c-11.778 0-21.326-9.548-21.326-21.326s9.548-21.326 21.326-21.326h62.926c-11.566-242.037-204.879-435.363-445.844-446.908l-1.068-0.041zM552.565 437.675c1.082 3.048 1.832 6.581 2.099 10.248l0.008 0.133c-0.226 8.92-3.242 17.094-8.202 23.729l0.078-0.108 134.089 287.359c1.265 2.645 2.004 5.75 2.004 9.027 0 11.784-9.553 21.336-21.336 21.336-8.507 0-15.851-4.978-19.278-12.18l-0.055-0.129-134.013-287.171c-21.611-2.104-38.365-20.177-38.365-42.164 0-23.39 18.961-42.352 42.352-42.352 0.013 0 0.027 0 0.040 0h-0.002c3.8 0.276 7.333 1.026 10.669 2.194l-0.288-0.088 166.51-166.51c3.93-4.489 9.671-7.308 16.071-7.308 11.778 0 21.326 9.548 21.326 21.326 0 6.4-2.819 12.141-7.283 16.050l-0.025 0.021z" />
<glyph unicode="&#xe90e;" glyph-name="indicators" horiz-adv-x="1783" d="M1779.385 646.161l-372.42 311.761c-1.595 1.332-3.667 2.141-5.927 2.141s-4.333-0.809-5.942-2.153l0.015 0.012-372.42-311.761c-2-1.705-3.261-4.227-3.261-7.043 0-5.098 4.13-9.231 9.226-9.237h138.33l-0.269-46.572c-37.72-9-69.288-18.904-99.929-30.678l5.362 1.811-293.864 245.983c-1.586 1.336-3.652 2.148-5.908 2.148s-4.322-0.812-5.922-2.159l0.014 0.011-334.469-279.892c-2.040-1.699-3.328-4.24-3.328-7.082 0-5.080 4.118-9.199 9.199-9.199 0.020 0 0.040 0 0.060 0h123.162v-256.221c-38.179-16.116-82.425-26.808-128.767-29.805l-1.21-0.063v153.956h92.835c0.005 0 0.012 0 0.018 0 5.080 0 9.199 4.118 9.199 9.199 0 2.842-1.289 5.383-3.313 7.070l-0.015 0.012-257.453 215.538c-1.586 1.336-3.652 2.148-5.908 2.148s-4.322-0.812-5.922-2.159l0.014 0.011-257.376-215.538c-2.040-1.699-3.328-4.24-3.328-7.082 0-5.080 4.118-9.199 9.199-9.199 0.006 0 0.013 0 0.019 0h92.719v-396.013c0.044-22.132 17.974-40.062 40.101-40.106h249.105c22.141 0.022 40.084 17.965 40.106 40.103v223.585c47.496 3.003 91.753 13.276 132.866 29.733l-2.889-1.021v-243.020c0.022-27.264 22.118-49.359 49.379-49.381h323.31c27.263 0.044 49.354 22.122 49.42 49.375v508.561c52.614 28.679 113.598 52.699 177.69 68.914l5.479 1.174-2.309-574.064c0-29.76 24.125-53.885 53.885-53.885h360.219c29.76 0 53.885 24.125 53.885 53.885v0l2.579 639.957h138.56c5.081 0.028 9.188 4.153 9.188 9.237 0 2.816-1.26 5.339-3.248 7.033l-0.013 0.011zM266.767 584.578l232.050-194.254h-76.632c-0.011 0-0.025 0-0.039 0-5.080 0-9.199-4.118-9.199-9.199 0-0.014 0-0.027 0-0.041v0.002-163.694c-2.386 0-4.619-0.231-7.082-0.231-175.51 0-291.169 92.374-296.365 235.938zM91.95 438.32c1.452-17.729 4.425-34.064 8.831-49.799l-0.441 1.842h-65.739zM412.91-23.971c-0.022-11.959-9.71-21.647-21.667-21.669h-249.103c-11.942 0.044-21.609 9.724-21.631 21.667v363.569c47.572-88.14 149.722-140.831 285.357-140.831 2.425 0 4.696 0.192 7.082 0.231zM570.715 522.572h-107.115l309.067 258.685 280.161-234.552c-105.754-47.244-196.914-103.082-279.748-168.944l2.627 2.017c-56.978-45.324-121.124-86.584-189.249-121.131l-6.429-2.957v257.876c-0.061 5.034-4.156 9.091-9.198 9.091-0.136 0-0.27-0.003-0.405-0.009l0.019 0.001zM965.266-14.696c0-17.006-13.786-30.791-30.791-30.791v0h-323.308c-16.953 0.13-30.661 13.838-30.791 30.779v250.691c78.733 38.129 146.524 81.069 208.816 130.624l-2.245-1.725c51.468 39.744 109.65 79.141 170.224 114.917l7.98 4.361zM1578.781-45.487h-360.219c-19.577 0.022-35.443 15.875-35.487 35.444v0.004l2.309 578.528c53.985 12.236 115.982 19.248 179.617 19.248 0.884 0 1.767-0.001 2.65-0.004h-0.137c5.388 0 10.854 0 16.358 0 3.147 0.060 6.859 0.094 10.579 0.094 80.056 0 156.415-15.829 226.117-44.528l-3.953 1.441-2.271-554.242c0.003-0.161 0.004-0.35 0.004-0.54 0-19.62-15.905-35.525-35.525-35.525-0.096 0-0.192 0-0.288 0.001h0.015zM1626.122 648.355c0 0 0 0 0 0-5.088 0-9.215-4.114-9.237-9.197v-0.002l-0.308-74.823c-65.996 26.312-142.478 41.571-222.525 41.571-3.485 0-6.963-0.029-10.433-0.087l0.523 0.007c-5.658 0-11.239 0-16.781 0-1.047 0.005-2.285 0.007-3.524 0.007-63.177 0-124.782-6.731-184.137-19.515l5.724 1.033 0.192 51.575c0 5.102-4.136 9.237-9.237 9.237v0h-122.164l347.017 290.477 347.055-290.477z" />
<glyph unicode="&#xe90f;" glyph-name="arrow-right" horiz-adv-x="1536" d="M1526.511 470.679l-479.951 479.951c-5.773 5.695-13.706 9.212-22.461 9.212-17.667 0-31.989-14.322-31.989-31.989 0-8.755 3.517-16.688 9.215-22.465l425.041-425.34h-1394.378c-17.667 0-31.989-14.322-31.989-31.989s14.322-31.989 31.989-31.989v0h1394.378l-425.344-425.344c-5.883-5.804-9.528-13.865-9.528-22.777 0-17.667 14.322-31.989 31.989-31.989 8.912 0 16.973 3.644 22.773 9.524l479.955 480.015c5.86 5.8 9.489 13.846 9.489 22.739 0 8.744-3.509 16.669-9.195 22.444l0.004-0.004z" />
<glyph unicode="&#xe910;" glyph-name="buscar" d="M621.668 306.332c-44.476-31.692-98.895-50.332-157.668-50.332-150.221 0-272 121.779-272 272s121.779 272 272 272c150.221 0 272-121.779 272-272 0-75.111-30.445-143.111-79.667-192.333l191.916-191.916c8.802-8.802 8.588-22.915-0.249-31.751-8.898-8.898-23.052-8.948-31.751-0.249l-194.581 194.581zM464 288c132.548 0 240 107.452 240 240s-107.452 240-240 240c-132.548 0-240-107.452-240-240s107.452-240 240-240v0z" />
<glyph unicode="&#xe911;" glyph-name="hands" horiz-adv-x="1155" d="M1154.935 558.166v361.199c-0.491 13.577-11.616 24.398-25.268 24.398-0.323 0-0.645-0.006-0.965-0.018l0.046 0.001h-651.062c-8.938-0.374-16.751-4.884-21.615-11.655l-0.057-0.084-30.702-44.247-102.039 67.725c-2.885 1.519-6.305 2.41-9.933 2.41s-7.048-0.891-10.052-2.467l0.119 0.057c-7.266-1.447-13.329-5.736-17.094-11.634l-0.063-0.105-286.25-455.111c-2.344-3.927-3.73-8.661-3.73-13.718 0-9.274 4.66-17.459 11.765-22.342l0.092-0.060 127.323-90.3-90.3-132.741c-5.607-9.168-8.926-20.264-8.926-32.135 0-20.427 9.83-38.558 25.018-49.921l0.163-0.116 56.889-39.732c9.402-6.388 20.898-10.37 33.294-10.833l0.117-0.003c4.731-11.591 12.517-21.121 22.364-27.857l0.211-0.136 56.889-39.732c9.046-6.769 20.454-10.839 32.812-10.839 0.211 0 0.421 0.001 0.631 0.004h-0.032c4.778-11.848 12.546-21.65 22.385-28.765l0.19-0.131 56.889-39.732c9.543-6.778 21.431-10.836 34.266-10.836 0.017 0 0.033 0 0.050 0h11.736c16.529 2.965 30.489 12.194 39.603 25.091l0.129 0.193 90.3 133.644 134.547-90.3c15.369-10.586 34.387-16.908 54.882-16.908 6.136 0 12.139 0.567 17.961 1.65l-0.603-0.093c25.637 4.739 47.231 19.237 61.198 39.417l0.206 0.315c9.283 14.056 15.202 31.074 16.242 49.398l0.012 0.267h40.635c44.912 8.469 78.43 47.392 78.43 94.144 0 6.305-0.61 12.468-1.773 18.432l0.098-0.604h24.381l-9.933 18.060c8.723 3.611 16.204 8.485 22.617 14.487l-0.042-0.039c14.663 14.425 23.748 34.481 23.748 56.659 0 2.306-0.098 4.588-0.291 6.844l0.020-0.294c2.443 0.442 5.256 0.695 8.127 0.695s5.684-0.253 8.416-0.738l-0.289 0.042h7.224c2.714-0.445 5.842-0.699 9.030-0.699s6.316 0.254 9.366 0.743l-0.336-0.044c44.93 5.654 79.336 43.625 79.336 89.632 0 7.61-0.941 15-2.714 22.060l0.132-0.623c-4.706 25.919-19.198 47.802-39.429 62.104l-0.303 0.203-18.963 12.642 96.621 62.307c8.544 3.662 14.736 11.351 16.233 20.613l0.021 0.156zM961.693 364.021l-139.062 90.3c-4.145 2.561-9.17 4.078-14.55 4.078-9.173 0-17.315-4.412-22.421-11.23l-0.052-0.073v-5.418c-1.011-2.677-1.596-5.771-1.596-9.002 0-8.993 4.533-16.927 11.439-21.642l0.090-0.058 145.383-98.427c-17.599-10.867-30.735-27.52-36.862-47.257l-0.161-0.601c-2.672-6.675-4.311-14.405-4.513-22.491l-0.002-0.084c-4.797 1.107-9.025 2.979-12.777 5.504l0.136-0.086-136.353 90.3c-4.442 3.1-9.954 4.954-15.9 4.954-10.664 0-19.936-5.964-24.662-14.738l-0.073-0.149c-0.411-1.797-0.646-3.861-0.646-5.979 0-10.017 5.261-18.804 13.171-23.751l0.118-0.069 136.353-90.3c9.881-7.842 16.162-19.85 16.162-33.326 0-10.369-3.718-19.87-9.895-27.241l0.054 0.066c-7.552-11.244-20.22-18.544-34.593-18.544-9.041 0-17.407 2.888-24.226 7.792l0.124-0.085-141.771 95.718c-4.089 2.471-9.029 3.934-14.31 3.934-9.882 0-18.568-5.121-23.55-12.853l-0.067-0.111v-8.127c-1.118-2.856-1.765-6.162-1.765-9.619 0-7.099 2.731-13.561 7.2-18.392l-0.016 0.018 102.942-69.531c12.33-7.784 20.4-21.336 20.4-36.773 0-8.081-2.211-15.645-6.062-22.121l0.11 0.2c-7.583-12.276-20.965-20.334-36.229-20.334-7.953 0-15.394 2.187-21.757 5.993l0.193-0.107h-5.418l-134.547 90.3 41.538 58.695c6.71 9.699 10.719 21.713 10.719 34.663 0 20.675-10.218 38.964-25.881 50.091l-0.19 0.128-62.307 49.665h-8.127c-2.346-0.794-5.049-1.252-7.858-1.252-10.848 0-20.101 6.832-23.69 16.428l-0.057 0.175c-0.185 1.086-0.291 2.337-0.291 3.612s0.106 2.526 0.309 3.744l-0.018-0.132v8.127l-65.016 45.15c-9.476 7.554-21.17 12.72-33.961 14.41l-0.353 0.038c-4.719 11.387-12.145 20.845-21.502 27.871l-0.17 0.122-18.963 13.545c79.815 18.413 149.263 54.975 206.409 105.201l-0.526-0.453c40.318 32.115 85.532 62.051 133.287 87.889l4.872 2.411 301.601-201.369 51.471-35.217c7.232-5.306 12.622-12.742 15.273-21.378l0.078-0.294v-6.321c0.488-2.416 0.768-5.193 0.768-8.036 0-20.516-14.557-37.632-33.905-41.582l-0.273-0.047c-2.058-0.346-4.428-0.544-6.845-0.544-9.266 0-17.853 2.907-24.898 7.86l0.138-0.092-10.836 6.321zM1100.755 890.469v-158.025c-45.731 20.595-99.135 32.593-155.341 32.593-2.849 0-5.69-0.031-8.524-0.092l0.422 0.007c-4.656 0.135-10.135 0.212-15.631 0.212-85.619 0-166.868-18.706-239.884-52.255l3.579 1.474-121.905 81.27c-4.024 2.825-9.025 4.515-14.42 4.515-0.010 0-0.020 0-0.030 0h0.002c-8.832 0-16.677-4.227-21.623-10.768l-0.049-0.068-128.226-180.6c-6.62-8.959-16.438-15.227-27.739-17.122l-0.254-0.035c-1.992-0.318-4.289-0.499-6.629-0.499-9.331 0-17.988 2.888-25.124 7.82l0.148-0.097c-8.919 6.29-15.193 15.818-17.121 26.841l-0.036 0.249c-0.377 2.123-0.592 4.568-0.592 7.063 0 9.201 2.928 17.718 7.903 24.671l-0.087-0.128 163.443 232.974zM891.259 576.226l-152.607 102.039c55.669 20.67 119.979 32.629 187.081 32.629 4.071 0 8.132-0.044 12.182-0.132l-0.604 0.010c3.515 0.138 7.642 0.217 11.787 0.217 55.542 0 107.786-14.126 153.333-38.981l-1.677 0.838v-100.233l-107.457-64.113-90.3 64.113zM285.347 684.586c-10.337-14.49-16.527-32.559-16.527-52.073 0-6.826 0.757-13.474 2.192-19.867l-0.114 0.603c3.955-26.181 18.665-48.311 39.4-62.099l0.332-0.208c15.084-10.211 33.684-16.301 53.706-16.301 31.996 0 60.359 15.552 77.943 39.509l0.189 0.27 112.875 161.637 76.755-46.956c-46.521-26.275-86.362-53.157-123.92-82.804l2.015 1.534c-63.084-59.686-145.934-99.063-237.753-107.345l-1.542-0.112c-5.594-0.654-12.076-1.027-18.644-1.027-55.324 0-104.466 26.464-135.46 67.423l-0.309 0.426 200.466 327.788 77.658-51.471zM84.882 517.531c30.065-32.717 70.037-55.902 115.141-64.795l1.346-0.221-30.702-45.15-108.36 74.949zM255.549 435.358c1.49 1.127 3.375 1.806 5.418 1.806s3.928-0.678 5.441-1.822l-0.023 0.016 56.889-40.635c0.709-1.008 1.134-2.26 1.134-3.612s-0.424-2.604-1.147-3.632l0.013 0.020-164.346-240.198c-1.091-0.92-2.512-1.479-4.063-1.479s-2.973 0.559-4.073 1.487l0.009-0.008-7.224 4.515-53.277 37.023c-1.503 1.33-2.446 3.264-2.446 5.418s0.943 4.088 2.438 5.411l0.008 0.007zM369.326 356.797v0c1.091 0.92 2.512 1.479 4.063 1.479s2.973-0.559 4.073-1.487l-0.009 0.008 56.889-39.732c1.127-1.49 1.806-3.375 1.806-5.418s-0.678-3.928-1.822-5.441l0.016 0.023-163.443-233.877s0 0 0 0v0c-0.793-0.385-1.725-0.61-2.709-0.61s-1.916 0.225-2.747 0.626l0.038-0.016-56.889 39.732c-0.609 1.183-0.966 2.582-0.966 4.063s0.357 2.88 0.99 4.114l-0.024-0.051zM481.298 277.333s0 0 0 0h5.418l62.307-39.732c1.127-1.49 1.806-3.375 1.806-5.418s-0.678-3.928-1.822-5.441l0.016 0.023-163.443-233.877c-0.793-0.385-1.725-0.61-2.709-0.61s-1.916 0.225-2.747 0.626l0.038-0.016s0 0 0 0l-5.418 5.418-52.374 37.023c-1.503 1.33-2.446 3.264-2.446 5.418s0.943 4.088 2.438 5.411l0.008 0.007z" />
<glyph unicode="&#xe912;" glyph-name="twitter-square" horiz-adv-x="878" d="M731.429 602.286c-21.714-9.714-44.571-16-69.143-19.429 25.143 14.857 44 38.857 53.143 66.857-23.429-13.714-49.143-24-76.571-29.143-21.714 23.429-53.143 37.714-87.429 37.714-66.286 0-120-53.714-120-120 0-9.143 0.571-18.857 2.857-27.429-100 5.143-188.571 52.571-248 125.714-10.286-17.714-16.571-38.857-16.571-60.571 0-41.714 19.429-78.286 52-100-20 0.571-38.857 6.286-57.143 14.857v-1.143c0-58.286 44-106.857 98.857-117.714-10.286-2.857-18.286-4.571-29.143-4.571-7.429 0-14.857 1.143-22.286 2.286 15.429-47.429 59.429-82.286 112-83.429-41.143-32-92.571-51.429-149.143-51.429-9.714 0-19.429 0.571-28.571 1.714 53.143-33.714 116-53.714 184-53.714 220.571 0 341.714 182.857 341.714 341.714 0 5.143 0 10.286-0.571 15.429 23.429 16.571 44 37.714 60 62.286zM877.714 713.143v-548.571c0-90.857-73.714-164.571-164.571-164.571h-548.571c-90.857 0-164.571 73.714-164.571 164.571v548.571c0 90.857 73.714 164.571 164.571 164.571h548.571c90.857 0 164.571-73.714 164.571-164.571z" />
<glyph unicode="&#xe913;" glyph-name="facebook-square" horiz-adv-x="878" d="M829.143 877.714c26.857 0 48.571-21.714 48.571-48.571v-780.571c0-26.857-21.714-48.571-48.571-48.571h-223.429v340h113.714l17.143 132.571h-130.857v84.571c0 38.286 10.286 64 65.714 64l69.714 0.571v118.286c-12 1.714-53.714 5.143-101.714 5.143-101.143 0-170.857-61.714-170.857-174.857v-97.714h-114.286v-132.571h114.286v-340h-420c-26.857 0-48.571 21.714-48.571 48.571v780.571c0 26.857 21.714 48.571 48.571 48.571h780.571z" />
<glyph unicode="&#xe914;" glyph-name="download" d="M853.333 298.667v-170.667c0-11.776-4.736-22.4-12.501-30.165s-18.389-12.501-30.165-12.501h-597.333c-11.776 0-22.4 4.736-30.165 12.501s-12.501 18.389-12.501 30.165v170.667c0 23.552-19.115 42.667-42.667 42.667s-42.667-19.115-42.667-42.667v-170.667c0-35.328 14.379-67.413 37.504-90.496s55.168-37.504 90.496-37.504h597.333c35.328 0 67.413 14.379 90.496 37.504s37.504 55.168 37.504 90.496v170.667c0 23.552-19.115 42.667-42.667 42.667s-42.667-19.115-42.667-42.667zM554.667 401.664v409.003c0 23.552-19.115 42.667-42.667 42.667s-42.667-19.115-42.667-42.667v-409.003l-140.501 140.501c-16.683 16.683-43.691 16.683-60.331 0s-16.683-43.691 0-60.331l213.333-213.333c3.925-3.925 8.619-7.083 13.824-9.259s10.795-3.243 16.341-3.243c10.923 0 21.845 4.181 30.165 12.501l213.333 213.333c16.683 16.683 16.683 43.691 0 60.331s-43.691 16.683-60.331 0z" />
<glyph unicode="&#xe915;" glyph-name="chat" horiz-adv-x="1163" d="M56.811 328.262l8.359-135.14c0.193-4.233 2.057-7.996 4.944-10.672l0.010-0.009c2.998-2.781 7.027-4.488 11.455-4.489v0c4.461 0.015 8.476 1.915 11.292 4.944l0.009 0.010 135.295 140.249h62.849l-2.012-150.465c0.519-48.35 39.576-87.407 87.877-87.926h553.303l139.32-143.809c2.942-3.039 7.053-4.932 11.606-4.954h0.004c8.382 0.403 15.077 7.098 15.479 15.443l0.001 0.037 8.359 138.236c34.295 12.405 58.361 44.686 58.361 82.588 0 0.19-0.001 0.379-0.002 0.568v-0.029 503.563c-0.175 48.49-39.437 87.751-87.909 87.926h-247.697v111.92c-0.608 46.384-38.352 83.752-84.823 83.752-0.329 0-0.658-0.002-0.986-0.006h-655.062c-23.746-0.195-45.26-9.595-61.18-24.801l0.034 0.033c-15.854-15.38-25.694-36.881-25.697-60.681v-465.948c0.218-36.812 23.555-68.118 56.216-80.149l0.596-0.192zM827.559 408.758v323.222h247.68c30.634-0.086 55.465-24.809 55.728-55.393v-503.898c0-0.042 0-0.091 0-0.141 0-26.772-18.984-49.11-44.225-54.287l-0.357-0.061c-7.393-1.469-12.925-7.796-13.157-15.456l-0.001-0.024-6.811-113.004-117.803 122.137c-2.961 3.012-7.060 4.896-11.599 4.953h-560.076c-30.48 0.258-55.14 24.81-55.573 55.223v0.041l2.167 150.62h417.959c0.046 0 0.1 0 0.155 0 47.449 0 85.914 38.465 85.914 85.914 0 0.055 0 0.109 0 0.164v-0.009zM32.508 874.551c-0.002 0.149-0.002 0.325-0.002 0.501 0 14.466 5.923 27.548 15.476 36.954l0.007 0.006c9.718 9.571 23.065 15.481 37.792 15.481 0.101 0 0.203 0 0.304-0.001h656.954c28.734-0.435 51.86-23.83 51.86-52.626 0-0.165-0.001-0.33-0.002-0.495v0.025-104.025c-31.272 10.912-67.322 17.215-104.843 17.215-1.617 0-3.232-0.012-4.844-0.035l0.244 0.003c-1.112 0.009-2.428 0.014-3.744 0.014-123.282 0-235.906-45.635-321.9-120.933l0.565 0.484c-49.199-45.686-113.474-75.748-184.584-81.961l-1.176-0.083c-85.449 0-141.487 44.737-143.035 114.552zM32.508 609.224c30.96-35.604 80.031-56.347 143.035-56.347v0c79.605 6.421 150.553 39.092 205.207 89.238l-0.252-0.229c80.413 70.386 186.405 113.317 302.424 113.317 0.618 0 1.236-0.001 1.853-0.004h-0.096c1.64 0.033 3.574 0.052 5.512 0.052 37.465 0 73.294-7.005 106.248-19.776l-2.008 0.684v-327.556c-0.433-28.83-23.776-52.065-52.607-52.322h-520.462c-0.122 0.003-0.266 0.005-0.41 0.005-4.482 0-8.519-1.905-11.346-4.949l-0.009-0.010-114.397-118.886-6.811 109.908c0.001 0.067 0.002 0.146 0.002 0.225 0 7.62-5.506 13.954-12.757 15.241l-0.093 0.014c-24.032 5.16-41.958 25.727-43.030 50.662l-0.004 0.112z" />
<glyph unicode="&#xe916;" glyph-name="envelope" horiz-adv-x="1076" d="M1070.493 657.507l-3.632 2.325-199.482 0.872v266.897c-0.074 1.703-0.495 3.292-1.193 4.72l0.031-0.070s-0.872 1.889 0 1.017l-2.179 3.051c-0.691 0.607-1.449 1.181-2.249 1.698l-0.076 0.046-1.889 1.017c-31.428 13.245-67.964 20.941-106.298 20.941-1.143 0-2.284-0.007-3.424-0.020l0.173 0.002c-0.828 0.006-1.808 0.010-2.788 0.010-97.94 0-187.405-36.281-255.69-96.137l0.444 0.382c-38.669-36.065-89.25-59.81-145.233-64.733l-0.929-0.066c-64.799 0-108.967 33.417-112.599 84.123v2.76c-0.222 1.203-0.575 2.274-1.051 3.276l0.034-0.079v1.162c-0.737 1.303-1.658 2.409-2.743 3.327l-0.018 0.015c-1.157 1.106-2.569 1.955-4.138 2.45l-0.075 0.020c-1.324 0.547-2.857 0.911-4.461 1.015l-0.043 0.002c-0.726 0-1.453 0-0.872 0h-2.179l-3.342-0.872c-0.666-0.291-1.239-0.631-1.764-1.032l0.020 0.015-2.47-2.179s-1.162-1.453-1.017-1.453v0l-1.017-1.598-0.872-2.906c0-0.872 0-1.889 0-1.453v-224.036h-198.611l-4.359-2.325c-0.672-0.6-1.289-1.217-1.869-1.866l-0.020-0.022-2.615-2.906v-2.906c-0.031-0.413-0.049-0.895-0.049-1.38s0.018-0.967 0.053-1.444l-0.004 0.064v-699.569c0.473-7.64 6.785-13.657 14.503-13.657 0.009 0 0.018 0 0.028 0h1048.989c7.543 0 13.657 6.115 13.657 13.657v0 705.235h-3.778zM867.087 633.97h148.776l-148.922-99.523zM233.335 817.471c24.895-27.984 61.004-45.526 101.21-45.526 1.297 0 2.59 0.018 3.879 0.055l-0.19-0.004v-0.872l7.991 0.726c63.087 5.296 119.249 31.349 162.476 71.217l-0.188-0.171c63.476 55.59 147.158 89.499 238.759 89.499 0.187 0 0.374 0 0.562 0h1.86c0.565 0.005 1.234 0.007 1.903 0.007 31.628 0 61.886-5.865 89.745-16.568l-1.714 0.579v-399.837l-303.219-201.952-303.074 201.952zM205.875 633.535v-99.087l-148.776 99.087zM1047.246-37.557h-1021.675v659.614l503.283-335.183c2.060-1.313 4.571-2.092 7.264-2.092s5.204 0.78 7.32 2.125l-0.055-0.033 503.864 335.183zM371.215 661.285h336.926c0.006 0 0.013 0 0.020 0 3.256 0 6.243 1.152 8.576 3.070l-0.023-0.019c2.673 2.315 4.486 5.561 4.933 9.229l0.007 0.070c0.027 0.322 0.043 0.698 0.043 1.076 0 7.017-5.349 12.785-12.192 13.448l-0.055 0.004h-335.328c-0.322 0.027-0.698 0.043-1.076 0.043-7.017 0-12.785-5.349-13.448-12.192l-0.004-0.055c-0.064-0.49-0.101-1.056-0.101-1.631 0-3.198 1.135-6.13 3.025-8.417l-0.018 0.022c2.215-2.449 5.234-4.135 8.638-4.64l0.079-0.010zM371.36 562.779h336.636c7.594 0.038 13.736 6.203 13.736 13.802 0 3.252-1.125 6.241-3.006 8.6l0.021-0.028c-2.315 2.673-5.561 4.486-9.229 4.933l-0.070 0.007h-335.328c-0.322 0.027-0.698 0.043-1.076 0.043-7.017 0-12.785-5.349-13.448-12.192l-0.004-0.055c-0.069-0.503-0.108-1.084-0.108-1.675 0-3.185 1.138-6.103 3.030-8.371l-0.017 0.021c2.195-2.643 5.274-4.485 8.777-5.073l0.085-0.012zM707.995 459.333c0.023 0 0.050 0 0.077 0 7.031 0 12.821 5.313 13.574 12.143l0.005 0.061c0.069 0.503 0.108 1.084 0.108 1.675 0 3.185-1.138 6.103-3.030 8.371l0.017-0.021c-2.296 2.729-5.543 4.592-9.225 5.077l-0.074 0.008h-335.328c-0.322 0.027-0.698 0.043-1.076 0.043-7.017 0-12.785-5.349-13.448-12.192l-0.004-0.055c-0.069-0.503-0.108-1.084-0.108-1.675 0-3.185 1.138-6.103 3.030-8.371l-0.017 0.021c2.296-2.729 5.543-4.592 9.225-5.077l0.074-0.008h336.2z" />
<glyph unicode="&#xe917;" glyph-name="phone" horiz-adv-x="1625" d="M1578.551 917.23l-83.934 36.347c-9.123 4.081-19.771 6.458-30.974 6.458-31.741 0-59.026-19.079-71.013-46.394l-0.195-0.498-90.503-209.325c-4.023-9.084-6.365-19.679-6.365-30.822 0-31.758 19.027-59.071 46.303-71.163l0.496-0.196 2.336-1.022c-53.416-169.554-184.37-300.413-350.195-352.663l-3.789-1.030-0.876 2.19c-12.288 27.773-39.602 46.8-71.359 46.8-11.142 0-21.738-2.342-31.32-6.561l0.499 0.196-209.325-90.649c-14.458-6.266-26.287-16.311-34.56-28.9l-0.181-0.294c-110.704-8.247-209.922-51.7-287.908-119.065l0.633 0.535c-48.423-45.060-111.705-74.736-181.734-80.931l-1.17-0.083c-84.956 0-140.426 44.96-141.302 114.589-0.243 8.79-7.388 15.833-16.195 15.911h-0.008c-8.853-0.227-15.943-7.457-15.943-16.344 0-0.361 0.012-0.72 0.035-1.075l-0.003 0.048c4.002-82.135 71.536-147.221 154.287-147.287h7.451c4.233 0 8.612 0 12.408 1.022 78.716 6.651 148.779 39.191 202.696 88.963l-0.232-0.211c69.133 59.846 156.995 99.784 253.718 110.035l2.026 0.174c-0.285-2.493-0.448-5.382-0.448-8.309 0-11.032 2.313-21.523 6.481-31.016l-0.194 0.496 36.201-83.788c12.198-27.343 39.145-46.057 70.462-46.057 1.196 0 2.386 0.027 3.568 0.081l-0.168-0.006c4.787 0.001 9.499 0.319 14.117 0.935l-0.542-0.059c265.817 36.493 450.764 114.443 581.994 245.38l33.866 33.866c131.376 131.376 208.887 315.885 245.38 581.702 0.987 4.711 1.552 10.124 1.552 15.669 0 31.838-18.634 59.324-45.591 72.146l-0.483 0.207zM1591.105 834.317c-35.325-258.664-110.356-437.919-236.184-563.747l-33.866-33.866c-125.683-125.537-304.791-200.713-563.747-236.184-3.065 0-6.131 0-9.488 0-0.691-0.037-1.499-0.058-2.312-0.058-18.232 0-33.977 10.644-41.361 26.058l-0.119 0.276-36.201 83.642c-2.304 5.275-3.644 11.422-3.644 17.881 0 18.576 11.086 34.563 27.003 41.706l0.289 0.116 209.325 89.189c5.261 2.299 11.391 3.637 17.834 3.637 18.547 0 34.505-11.087 41.608-26.995l0.115-0.289 6.715-15.473c2.467-5.788 8.108-9.771 14.679-9.771 1.691 0 3.32 0.264 4.848 0.752l-0.113-0.031c191.228 54.721 338.739 202.377 392.274 389.692l0.977 3.997c0.468 1.432 0.738 3.079 0.738 4.79 0 6.522-3.924 12.128-9.54 14.584l-0.102 0.040-15.619 6.715c-16.159 7.233-27.214 23.172-27.214 41.692 0 6.51 1.366 12.702 3.827 18.303l-0.115-0.292 90.503 209.325c7.139 16.171 23.035 27.253 41.518 27.253 6.524 0 12.725-1.38 18.328-3.865l-0.289 0.114 83.497-36.493c15.98-8.022 26.755-24.282 26.755-43.058 0-3.307-0.334-6.536-0.971-9.655l0.053 0.309h2.19z" />
<glyph unicode="&#xe918;" glyph-name="equis" d="M512 533.197l-362.035 362.035-72.397-72.397 362.035-362.035-362.035-362.035 72.397-72.397 362.035 362.035 362.035-362.035 72.397 72.397-362.035 362.035 362.035 362.035-72.397 72.397-362.035-362.035z" />
<glyph unicode="&#xe919;" glyph-name="file" horiz-adv-x="861" d="M637.826 743.127h-414.749c-5.049-0.702-12.069-2.264-16.597-6.521-4.284-4.122-6.968-9.881-7.042-16.266v-0.014c-0.002-0.108-0.003-0.236-0.003-0.363 0-12.777 10.294-23.149 23.041-23.276h415.486c0.195-0.006 0.424-0.009 0.654-0.009 12.83 0 23.232 10.401 23.232 23.232s-10.401 23.232-23.232 23.232c-0.278 0-0.554-0.005-0.83-0.015l0.040 0.001zM222.783 588.204h415.338c12.456 0.474 22.374 10.687 22.374 23.216 0 12.632-10.083 22.91-22.639 23.224l-0.029 0.001h-414.84c-11.457-0.158-23.39-10.076-23.549-22.779-0.002-0.108-0.003-0.236-0.003-0.364 0-12.781 10.292-23.159 23.040-23.298h0.013zM222.489 479.791h415.564c12.669 0.177 22.872 10.489 22.872 23.184 0 0.12-0.001 0.24-0.003 0.36v-0.018c-0.141 12.657-10.422 22.867-23.093 22.892h-414.751c-5.049-0.453-12.069-2.264-16.597-6.521-4.368-4.226-7.079-10.14-7.079-16.688 0-12.775 10.322-23.14 23.081-23.209h0.007zM637.826 417.228h-414.749c-6.371-0.309-12.125-2.723-16.637-6.554l0.040 0.033c-4.313-4.235-6.985-10.128-6.985-16.644 0-6.302 2.499-12.020 6.561-16.217l-0.006 0.006c4.195-4.333 10.055-7.032 16.546-7.065h415.366c0.195-0.006 0.424-0.009 0.654-0.009 12.83 0 23.232 10.401 23.232 23.232s-10.401 23.232-23.232 23.232c-0.278 0-0.554-0.005-0.83-0.015l0.040 0.001zM837.536 960h-814.327c-12.813-0.013-23.196-10.396-23.209-23.208v-977.606c0.013-12.813 10.396-23.196 23.208-23.209h814.328c12.813 0.013 23.196 10.396 23.209 23.208v977.606c-0.013 12.813-10.396 23.196-23.208 23.209h-0.001zM369.577 157.968c-48.677-45.358-112.301-75.252-182.719-81.542l-1.186-0.085c-84.843 0-138.121 42.704-139.072 111.244l-0.181 725.771h767.977v-646.521c-31.812 9.956-68.391 15.692-106.31 15.692-0.039 0-0.079 0-0.118 0h-6.039c-127.503-0.016-243.982-47.204-332.938-125.061l0.586 0.503zM186.713 30.149c82.559 6.759 156.119 40.677 212.811 92.688l-0.262-0.237c79.083 69.036 182.679 111.777 296.214 113.729l0.407 0.006h8.785c1.879 0.042 4.092 0.066 6.311 0.066 37.074 0 72.591-6.665 105.419-18.862l-2.094 0.681v-235.486l-767.864-0.43v98.27c32.529-31.548 76.949-50.996 125.912-50.996 5.054 0 10.060 0.207 15.010 0.614l-0.649-0.043z" />
<glyph unicode="&#xe91a;" glyph-name="out-link" d="M977.535 960h-372.394c-23.948-2.105-42.59-22.066-42.59-46.381s18.643-44.275 42.414-46.368l0.176-0.013h259.985l-479.070-479.070c-8.428-8.428-13.64-20.070-13.64-32.93 0-25.72 20.85-46.57 46.57-46.57 12.86 0 24.503 5.213 32.93 13.64l479.070 479.070v-260.322c2.105-23.948 22.066-42.59 46.381-42.59s44.275 18.643 46.368 42.414l0.013 0.176v372.394c0 0 0 0.001 0 0.001 0 25.59-20.649 46.357-46.194 46.548h-0.018zM791.338 494.76c-25.708 0-46.549-20.841-46.549-46.549v0-418.944h-652.027v651.437h419.281c1.186-0.107 2.565-0.169 3.959-0.169 25.708 0 46.549 20.841 46.549 46.549s-20.841 46.549-46.549 46.549c-1.394 0-2.773-0.061-4.135-0.181l0.176 0.013h-465.493c0 0-0.001 0-0.001 0-25.59 0-46.357-20.649-46.548-46.194v-744.807c0-25.708 20.841-46.549 46.549-46.549v0h744.789c25.708 0 46.549 20.841 46.549 46.549v465.493c0 0.075 0.001 0.164 0.001 0.253 0 25.708-20.841 46.549-46.549 46.549 0 0 0 0-0.001 0v0z" />
<glyph unicode="&#xea82;" glyph-name="share2" d="M864 256c-45.16 0-85.92-18.738-115.012-48.83l-431.004 215.502c1.314 8.252 2.016 16.706 2.016 25.328s-0.702 17.076-2.016 25.326l431.004 215.502c29.092-30.090 69.852-48.828 115.012-48.828 88.366 0 160 71.634 160 160s-71.634 160-160 160-160-71.634-160-160c0-8.622 0.704-17.076 2.016-25.326l-431.004-215.504c-29.092 30.090-69.852 48.83-115.012 48.83-88.366 0-160-71.636-160-160 0-88.368 71.634-160 160-160 45.16 0 85.92 18.738 115.012 48.828l431.004-215.502c-1.312-8.25-2.016-16.704-2.016-25.326 0-88.368 71.634-160 160-160s160 71.632 160 160c0 88.364-71.634 160-160 160z" />
</font></defs></svg>