<svg xmlns="http://www.w3.org/2000/svg" width="11.688" height="22.385" viewBox="0 0 11.688 22.385">
  <path id="Trazado_2684" data-name="Trazado 2684" d="M1137.212,394.364l10.946,10.946-10.946,10.945" transform="translate(-1136.965 -394.117)" fill="none" stroke="#0086c7" stroke-miterlimit="10" stroke-width="0.7"/>
</svg>
