<svg xmlns="http://www.w3.org/2000/svg" width="110.337" height="74.25" viewBox="0 0 110.337 74.25">
  <g id="Grupo_2081" data-name="Grupo 2081" transform="translate(-3030.851 -2729.447)">
    <path id="Trazado_2793" data-name="Trazado 2793" d="M3102.472,2743.334a102.3,102.3,0,0,0-22,0,.667.667,0,0,0-.6.663v9.283a.666.666,0,0,0,.667.667H3102.4a.666.666,0,0,0,.666-.667V2744A.666.666,0,0,0,3102.472,2743.334Zm-.741,9.278h-20.524V2744.6a100.935,100.935,0,0,1,20.524,0Z" transform="translate(-5.453 -1.478)" fill="#5ab031"/>
    <path id="Trazado_2794" data-name="Trazado 2794" d="M3141.038,2755.518c-.122-.613-.237-1.228-.353-1.842-.269-1.427-.545-2.9-.9-4.347a39.34,39.34,0,0,0-1.443-4.471,12.19,12.19,0,0,0-7.594-7.351,135.964,135.964,0,0,0-29.645-7.239,123.237,123.237,0,0,0-27.863-.075l-.67.072a116.512,116.512,0,0,0-32.389,7.69,11.12,11.12,0,0,0-6.083,5.763,35.321,35.321,0,0,0-2.909,10.484l-.042.238a7.411,7.411,0,0,0-.15,3.442c1.8,3.4,4.49,4.688,8.72,4.211,1.8-.2,3.612-.463,5.369-.714l1.329-.189c.977-.137,1.955-.265,2.933-.393,2.412-.316,4.907-.643,7.334-1.108a8.376,8.376,0,0,0,3.142-1.229c-6.855,12.357-12.369,36.347-13.166,39.914a.649.649,0,0,0-.015.145,5.184,5.184,0,0,0,5.178,5.179h68.385a5.184,5.184,0,0,0,5.178-5.179.712.712,0,0,0-.015-.145c-.8-3.588-6.381-27.858-13.294-40.143l.026.017a10.3,10.3,0,0,0,3.8,1.569c4.817.757,9.937,1.469,16.113,2.241,4.411.552,6.919-.615,8.922-4.115C3141.077,2757.734,3141.365,2757.085,3141.038,2755.518Zm-20.831,46.846h-68.385a3.848,3.848,0,0,1-3.843-3.775c1.066-4.766,2.98-12.3,5.349-19.917,1.163,5.4,6.155,8.827,13.1,8.827a18.017,18.017,0,0,0,6.9-1.383,15.28,15.28,0,0,0,26.865-14.229,35.526,35.526,0,0,1,6.163-.524c.223,0,.448,0,.673.006a25.867,25.867,0,0,1,9.893,1.835,262.012,262.012,0,0,1,7.133,25.384A3.849,3.849,0,0,1,3120.208,2802.363Zm-37.816-21.816c4.473-3.267,9.395-6.855,16.473-8.4a13.95,13.95,0,0,1-24.294,13.417A50.747,50.747,0,0,0,3082.392,2780.547Zm-8.529,3.887a13.949,13.949,0,1,1,24.4-13.531c-7.149,1.626-12.125,5.258-16.655,8.566A48.853,48.853,0,0,1,3073.862,2784.435Zm65.944-27.2c-1.755,3.067-3.751,3.981-7.625,3.5-6.163-.771-11.269-1.482-16.072-2.237a8.982,8.982,0,0,1-3.283-1.371c-1.845-1.194-2.253-2.658-1.284-4.607.671-1.35,1.354-2.694,2.036-4.04l.512-1.01a1.989,1.989,0,0,0,.306-1.657c-.23-.55-.823-.779-1.517-1a72.18,72.18,0,0,0-12.15-2.51.666.666,0,0,0-.755.66v8.836a.666.666,0,0,0,.667.667h3.883c3.885,0,8.173,8.79,11.817,19.079a28.369,28.369,0,0,0-9.292-1.51c-.237,0-.471-.007-.706-.007a36.77,36.77,0,0,0-6.729.606,15.28,15.28,0,1,0-26.983,14.336,16.648,16.648,0,0,1-6.2,1.194c-6.745,0-11.448-3.5-11.98-8.909a11.707,11.707,0,0,1-.028-1.864.655.655,0,0,0-.012-.087c3.891-11.813,8.748-22.837,13.1-22.837h3.883a.667.667,0,0,0,.667-.667v-8.833a.661.661,0,0,0-.229-.5.646.646,0,0,0-.528-.158c-2.535.351-4.838.734-7.04,1.17-1.133.225-2.25.536-3.33.835-.634.176-1.269.352-1.907.512a1.906,1.906,0,0,0-1.418.985,1.95,1.95,0,0,0,.224,1.666c.413.757.8,1.525,1.188,2.293.349.689.7,1.378,1.063,2.06a4.353,4.353,0,0,1,.368,4,5.289,5.289,0,0,1-4.013,2.557c-2.389.456-4.863.78-7.257,1.093-.982.129-1.966.257-2.946.4l-1.332.188c-1.747.25-3.552.506-5.331.708-3.7.424-5.846-.6-7.36-3.438a7.4,7.4,0,0,1,.253-2.653l.047-.272a34.148,34.148,0,0,1,2.79-10.1,9.731,9.731,0,0,1,5.387-5.112,115.148,115.148,0,0,1,32.024-7.6l.679-.073a122.149,122.149,0,0,1,27.56.073,134.579,134.579,0,0,1,29.33,7.163,10.791,10.791,0,0,1,6.819,6.573,38.33,38.33,0,0,1,1.4,4.318c.344,1.41.618,2.867.881,4.277.116.619.233,1.239.356,1.858v.008a2.959,2.959,0,0,1,.073,1.453Zm-29.459-5.311a5.466,5.466,0,0,0-.646,2.662c-1.688-2.162-3.43-3.457-5.178-3.457h-3.217v-7.405a68.259,68.259,0,0,1,11.168,2.356,3.762,3.762,0,0,1,.661.254,3.527,3.527,0,0,1-.234.531l-.512,1.009C3111.706,2749.227,3111.021,2750.575,3110.347,2751.928Zm-49.092-.73c-.361-.672-.7-1.352-1.048-2.031-.4-.78-.789-1.561-1.209-2.33-.2-.363-.174-.49-.174-.49s.083-.119.522-.229c.65-.163,1.3-.341,1.94-.521,1.058-.293,2.15-.6,3.233-.812,1.956-.387,3.993-.733,6.205-1.051v7.4h-3.217c-1.837,0-3.666,1.429-5.434,3.792A6.349,6.349,0,0,0,3061.255,2751.2Z" transform="translate(0 0)" fill="#5ab031"/>
  </g>
</svg>
